2005/cs.vcd
$date
	Thu Feb 06 19:09:03 2025
$end
$version
	ModelSim Version 2020.1
$end
$timescale
	10ps
$end

$scope module test $end
$var parameter 48 ! INPUT_DATA $end
$var parameter 112 " GOLDEN $end
$var parameter 32 # N_PAT $end
$var parameter 32 $ t_reset $end
$var reg 1 % reset $end
$var reg 1 & clk $end
$var reg 1 ' ready $end
$var reg 1 ( stop $end
$var reg 1 ) flag1 $end
$var reg 1 * flag2 $end
$var wire 1 + pclk $end
$var integer 32 , i $end
$var integer 32 - out_f $end
$var integer 32 . err $end
$var integer 32 / pattern_num $end
$var integer 32 0 a $end
$var integer 32 1 b $end
$var reg 8 2 X [7:0] $end
$var reg 10 3 data_tmp [9:0] $end
$var wire 1 4 Y [9] $end
$var wire 1 5 Y [8] $end
$var wire 1 6 Y [7] $end
$var wire 1 7 Y [6] $end
$var wire 1 8 Y [5] $end
$var wire 1 9 Y [4] $end
$var wire 1 : Y [3] $end
$var wire 1 ; Y [2] $end
$var wire 1 < Y [1] $end
$var wire 1 = Y [0] $end

$scope module top $end
$var wire 1 > clk $end
$var wire 1 ? reset $end
$var wire 1 @ X [7] $end
$var wire 1 A X [6] $end
$var wire 1 B X [5] $end
$var wire 1 C X [4] $end
$var wire 1 D X [3] $end
$var wire 1 E X [2] $end
$var wire 1 F X [1] $end
$var wire 1 G X [0] $end
$var wire 1 4 Y [9] $end
$var wire 1 5 Y [8] $end
$var wire 1 6 Y [7] $end
$var wire 1 7 Y [6] $end
$var wire 1 8 Y [5] $end
$var wire 1 9 Y [4] $end
$var wire 1 : Y [3] $end
$var wire 1 ; Y [2] $end
$var wire 1 < Y [1] $end
$var wire 1 = Y [0] $end
$var reg 11 H sum [10:0] $end
$var reg 4 I i [3:0] $end
$var reg 9 J Xappr [8:0] $end
$var reg 9 K Xavg [8:0] $end
$var reg 8 L x0 [7:0] $end
$var reg 8 M x1 [7:0] $end
$var reg 8 N x2 [7:0] $end
$var reg 8 O x3 [7:0] $end
$var reg 8 P x4 [7:0] $end
$var reg 8 Q x5 [7:0] $end
$var reg 8 R x6 [7:0] $end
$var reg 8 S x7 [7:0] $end
$var reg 8 T x8 [7:0] $end
$var reg 8 U cmp0 [7:0] $end
$var reg 8 V cmp1 [7:0] $end
$var reg 8 W cmp2 [7:0] $end
$var reg 8 X cmp3 [7:0] $end
$var reg 8 Y cmp4 [7:0] $end
$var reg 8 Z cmp5 [7:0] $end
$var reg 8 [ cmp6 [7:0] $end
$upscope $end
$upscope $end
$enddefinitions $end
#0
$dumpvars
0%
1&
x'
0(
x)
x*
b10001111 2
bx 3
bx H
b0 I
b0xxxxxxxx J
bx K
bx000xxxx L
bx M
bx N
bx O
bx P
bx Q
bx R
bx S
bx T
bx U
bx V
bx W
bx X
bx Y
bx Z
bx [
b11111010000 #
b10100 $
b11010010110111000101110011001000110000101110100 !
b110111101110101011101000101111101100111011011110110110001100100011001010110111000101110011001000110000101110100 "
bx ,
b10 -
b0 .
b0 /
b0 0
b0 1
1+
x=
x<
x;
x:
x9
x8
x7
x6
x5
x4
1>
0?
1G
1F
1E
1D
0C
0B
0A
1@
$end
#500
0&
0+
0>
1%
1?
b1 I
b10 I
b11 I
b100 I
b101 I
b110 I
b111 I
b1000 I
b1001 I
b0 H
b0 I
b0 K
b0 L
b0 M
b0 N
b0 O
b0 P
b0 Q
b0 R
b0 S
b0 T
b0 X
b0 W
b0 V
b0 U
b0 Y
b0 Z
b0 [
b0 J
0=
0<
0;
0:
09
08
07
06
05
04
#1000
1&
1+
1>
b1 I
b10 I
b11 I
b100 I
b101 I
b110 I
b111 I
b1000 I
b1001 I
b0 I
#1500
0&
0+
0>
#2000
1&
1+
1>
b1 I
b10 I
b11 I
b100 I
b101 I
b110 I
b111 I
b1000 I
b1001 I
b0 I
#2500
0%
0'
0&
0+
0?
0>
#3000
1&
1+
1>
b1000 I
b111 I
b110 I
b101 I
b100 I
b11 I
b10 I
b1 I
b0 I
b10001111 H
b1111 K
1=
19
0*
b1 1
#3500
b1 ,
0&
0+
0>
b1011 2
b10 ,
0E
0@
#4000
1&
1+
1>
b1000 I
b111 I
b110 I
b101 I
b100 I
b11 I
b10 I
b1 I
b0 I
b10011010 H
b10001 K
b1011 L
1<
b1011 U
b1011 Y
b1011 [
b1011 J
1;
1:
1*
b10 1
#4500
0&
0+
0>
b1011101 2
b11 ,
0F
1E
1C
1A
#5000
1&
1+
1>
b1000 I
b111 I
b110 I
b101 I
b100 I
b11 I
b10 I
b1 I
b0 I
b11110111 H
b11011 K
b0 L
b1011 M
0;
09
18
0*
b11 1
#5500
0&
0+
0>
b100000 2
b100 ,
0G
0E
0D
0C
1B
0A
#6000
1&
1+
1>
b1000 I
b111 I
b110 I
b101 I
b100 I
b11 I
b10 I
b1 I
b0 I
b100010111 H
b11111 K
b0 M
b1011 N
1;
b1011 V
b0 U
1*
b100 1
#6500
0&
0+
0>
b11110011 2
b101 ,
1G
1F
1C
1A
1@
#7000
1&
1+
1>
b1000 I
b111 I
b110 I
b101 I
b100 I
b11 I
b10 I
b1 I
b0 I
b1000001010 H
b111010 K
b100000 M
b0 N
b1011 O
0<
08
17
b100000 U
b100000 Y
b100000 [
b100000 J
0:
18
0*
b101 1
#7500
0&
0+
0>
b111110 2
b110 ,
0G
1E
1D
0A
0@
#8000
1&
1+
1>
b1000 I
b111 I
b110 I
b101 I
b100 I
b11 I
b10 I
b1 I
b0 I
b1001001000 H
b1000000 K
b111110 L
b0 M
b100000 N
b0 O
b1011 P
1:
b1011 W
b100000 V
b111110 U
b111110 Y
b1011 Z
b111110 [
b111110 J
0=
1<
08
07
16
1*
b110 1
#8500
0&
0+
0>
b11100101 2
b111 ,
1G
0F
0D
0C
1A
1@
#9000
1&
1+
1>
b1000 I
b111 I
b110 I
b101 I
b100 I
b11 I
b10 I
b1 I
b0 I
b1100101101 H
b1011010 K
b0 L
b111110 M
b0 N
b100000 O
b0 P
b1011 Q
1=
0;
18
0*
b111 1
#9500
0&
0+
0>
b11 2
b1000 ,
1F
0E
0B
0A
0@
#10000
1&
1+
1>
b1000 I
b111 I
b110 I
b101 I
b100 I
b11 I
b10 I
b1 I
b0 I
b1100110000 H
b11 L
b0 M
b111110 N
b0 O
b100000 P
b0 Q
b1011 R
b1011 X
b100000 W
b111110 V
b11 U
b100000 Z
#10500
0&
0+
0>
b1100 2
0G
0F
1E
1D
#11000
1&
1+
1>
b1000 I
b111 I
b110 I
b101 I
b100 I
b11 I
b10 I
b1 I
b0 I
1'
b1001 ,
b1100111100 H
b1011100 K
b1100 L
b11 M
b0 N
b111110 O
b0 P
b100000 Q
b0 R
b1011 S
0<
1;
b1100 U
1*
b1000 1
#11500
0&
0+
0>
b1110100 2
b1010 ,
0D
1C
1B
1A
#12000
1&
1+
1>
b1000 I
b111 I
b110 I
b101 I
b100 I
b11 I
b10 I
b1 I
b0 I
b10101101 3
b1 /
b1100100001 H
b1011001 K
b0 L
b1100 M
b11 N
b0 O
b111110 P
b0 Q
b100000 R
b0 S
b1011 T
0;
b100000 X
b111110 W
b11 V
b1100 Y
b111110 Z
0*
b1001 1
#12500
0&
0+
0>
b1111001 2
b1011 ,
1G
0E
1D
#13000
1&
1+
1>
b1000 I
b111 I
b110 I
b101 I
b100 I
b11 I
b10 I
b1 I
b0 I
b10101001 3
b10 /
b1110001111 H
b1100101 K
b0 M
b1100 N
b11 O
b0 P
b111110 Q
b0 R
b100000 S
b1011101 T
1<
1;
0:
19
b1011101 J
b1100 V
b0 U
0=
0;
1:
08
17
1*
b1010 1
#13500
0&
0+
0>
b1 2
b1100 ,
0D
0C
0B
0A
#14000
1&
1+
1>
b1000 I
b111 I
b110 I
b101 I
b100 I
b11 I
b10 I
b1 I
b0 I
b11011010 3
b11 /
b1100110011 H
b1011011 K
b1 L
b0 N
b1100 O
b11 P
b0 Q
b111110 R
b0 S
b100000 T
1=
1;
09
b111110 J
b111110 X
b11 W
b1 U
0=
0<
18
07
0*
b1011 1
#14500
0&
0+
0>
b110000 2
b1101 ,
0G
1C
1B
#15000
1&
1+
1>
b1000 I
b111 I
b110 I
b101 I
b100 I
b11 I
b10 I
b1 I
b0 I
b10101100 3
b100 /
b1101000011 H
b1011100 K
b110000 L
b1 M
b0 O
b1100 P
b11 Q
b0 R
b111110 S
b0 T
1<
b1100 W
b0 V
b110000 U
b110000 Y
1*
b1100 1
#15500
0&
0+
0>
b101110 2
b1110 ,
1F
1E
1D
0C
#16000
1&
1+
1>
b1000 I
b111 I
b110 I
b101 I
b100 I
b11 I
b10 I
b1 I
b0 I
b10101110 3
b101 /
b1001111110 H
b1000110 K
b101110 L
b110000 M
b1 N
b0 P
b1100 Q
b11 R
b0 S
b111110 T
1=
0<
0:
19
08
b11 X
b1 V
b1100 Z
b110000 [
0*
b1101 1
#16500
0&
0+
0>
b10100100 2
b1111 ,
0F
0D
1@
#17000
1&
1+
1>
b1000 I
b111 I
b110 I
b101 I
b100 I
b11 I
b10 I
b1 I
b0 I
b10010101 3
b110 /
b1011100100 H
b1010010 K
b0 L
b101110 M
b110000 N
b1 O
b0 Q
b1100 R
b11 S
b0 T
0=
1<
0;
09
18
b110000 J
b1100 X
b0 W
b110000 V
b101110 U
19
08
1*
b1110 1
#17500
0&
0+
0>
b1110110 2
b10000 ,
1F
1C
1A
0@
#18000
1&
1+
1>
b1000 I
b111 I
b110 I
b101 I
b100 I
b11 I
b10 I
b1 I
b0 I
b10010010 3
b111 /
b1001110101 H
b1000101 K
b0 M
b101110 N
b110000 O
b1 P
b0 R
b1100 S
b11 T
0<
1;
09
b1 W
b0 U
0*
b1111 1
#18500
0&
0+
0>
b10000100 2
b10001 ,
0F
0C
0B
0A
1@
#19000
1&
1+
1>
b1000 I
b111 I
b110 I
b101 I
b100 I
b11 I
b10 I
b1 I
b0 I
b10000100 3
b1000 /
b1011110110 H
b1010100 K
b0 N
b101110 O
b110000 P
b1 Q
b0 S
b1100 T
19
b0 X
b110000 W
b101110 V
b101110 Y
b110000 Z
1*
b10000 1
#19500
0&
0+
0>
b1010001 2
b10010 ,
1G
0E
1C
1A
0@
#20000
1&
1+
1>
b1000 I
b111 I
b110 I
b101 I
b100 I
b11 I
b10 I
b1 I
b0 I
b10010100 3
b1001 /
b1100111011 H
b1011011 K
b1010001 L
b0 O
b101110 P
b110000 Q
b1 R
b0 T
1=
1:
b1 X
b0 V
b1010001 U
b1010001 Y
b1010001 [
b1010001 J
0=
1<
0;
0:
09
17
0*
b10001 1
#20500
0&
0+
0>
b11010110 2
b10011 ,
0G
1F
1E
1@
#21000
1&
1+
1>
b1000 I
b111 I
b110 I
b101 I
b100 I
b11 I
b10 I
b1 I
b0 I
b11000010 3
b1010 /
b1110011101 H
b1100110 K
b0 L
b1010001 M
b0 P
b101110 Q
b110000 R
b1 S
1;
1:
b110000 X
b101110 W
1*
b10010 1
#21500
0&
0+
0>
b1110000 2
b10100 ,
0F
0E
1B
0@
#22000
1&
1+
1>
b1000 I
b111 I
b110 I
b101 I
b100 I
b11 I
b10 I
b1 I
b0 I
b11001110 3
b1011 /
b1110010100 H
b1100101 K
b0 M
b1010001 N
b0 Q
b101110 R
b110000 S
b1 T
1=
0<
b0 W
b1010001 V
b0 U
0*
b10011 1
#22500
0&
0+
0>
b110101 2
b10101 ,
1G
1E
0A
#23000
1&
1+
1>
b1000 I
b111 I
b110 I
b101 I
b100 I
b11 I
b10 I
b1 I
b0 I
b11001101 3
b1100 /
b1111001000 H
b1101011 K
b110101 L
b0 N
b1010001 O
b0 R
b101110 S
b110000 T
0=
0:
19
b101110 X
b110101 U
b101110 Z
1*
b10100 1
#23500
0&
0+
0>
b10000 2
b10110 ,
0G
0E
0B
#24000
1&
1+
1>
b1000 I
b111 I
b110 I
b101 I
b100 I
b11 I
b10 I
b1 I
b0 I
b11010100 3
b1101 /
b1110101000 H
b1101000 K
b10000 L
b110101 M
b0 O
b1010001 P
b0 S
b101110 T
0;
b0 X
b1010001 W
b0 V
b110101 Y
b1010001 Z
0*
b10101 1
#24500
0&
0+
0>
b100011 2
b10111 ,
1G
1F
0C
1B
#25000
1&
1+
1>
b1000 I
b111 I
b110 I
b101 I
b100 I
b11 I
b10 I
b1 I
b0 I
b11010000 3
b1110 /
b1110011101 H
b1100110 K
b100011 L
b10000 M
b110101 N
b0 P
b1010001 Q
b0 T
1<
1;
1:
09
b110101 V
b100011 U
1*
b10110 1
#25500
0&
0+
0>
b11100111 2
b11000 ,
1E
1A
1@
#26000
1&
1+
1>
b1000 I
b111 I
b110 I
b101 I
b100 I
b11 I
b10 I
b1 I
b0 I
b11001110 3
b1111 /
b1111100000 H
b1101110 K
b0 L
b100011 M
b10000 N
b110101 O
b0 Q
b1010001 R
1=
0:
19
b1010001 X
b0 W
0*
b10111 1
#26500
0&
0+
0>
b111011 2
b11001 ,
0E
1D
1C
0A
0@
#27000
1&
1+
1>
b1000 I
b111 I
b110 I
b101 I
b100 I
b11 I
b10 I
b1 I
b0 I
b11010111 3
b10000 /
b1110100101 H
b1100111 K
b111011 L
b0 M
b100011 N
b10000 O
b110101 P
b0 R
b1010001 S
1:
09
b110101 W
b100011 V
b111011 U
b111011 Y
1*
b11000 1
#27500
0&
0+
0>
b1101101 2
b11010 ,
0F
1E
0C
1A
#28000
1&
1+
1>
b1000 I
b111 I
b110 I
b101 I
b100 I
b11 I
b10 I
b1 I
b0 I
b11001111 3
b10001 /
b1110001110 H
b1100101 K
b0 L
b111011 M
b0 N
b100011 O
b10000 P
b110101 Q
b0 S
b1010001 T
0=
0<
b0 X
b110101 Z
b111011 [
0*
b11001 1
#28500
0&
0+
0>
b110100 2
b11011 ,
0G
0D
1C
0A
#29000
1&
1+
1>
b1000 I
b111 I
b110 I
b101 I
b100 I
b11 I
b10 I
b1 I
b0 I
b11001100 3
b10010 /
b1101110001 H
b1100001 K
b110100 L
b0 M
b111011 N
b0 O
b100011 P
b10000 Q
b110101 R
b0 T
1=
0;
b111011 J
b110101 X
b100011 W
b111011 V
b110100 U
0=
0:
19
18
07
1*
b11010 1
#29500
0&
0+
0>
b1100001 2
b11100 ,
1G
0E
0C
1A
#30000
1&
1+
1>
b1000 I
b111 I
b110 I
b101 I
b100 I
b11 I
b10 I
b1 I
b0 I
b10110000 3
b10011 /
b1011111100 H
b1010100 K
b0 L
b110100 M
b0 N
b111011 O
b0 P
b100011 Q
b10000 R
b110101 S
1=
09
0*
b11011 1
#30500
0&
0+
0>
b10001001 2
b11101 ,
1D
0B
0A
1@
#31000
1&
1+
1>
b1000 I
b111 I
b110 I
b101 I
b100 I
b11 I
b10 I
b1 I
b0 I
b10100001 3
b10100 /
b1100010101 H
b1010111 K
b0 M
b110100 N
b0 O
b111011 P
b0 Q
b100011 R
b10000 S
b110101 T
1;
b100011 X
b111011 W
b110100 V
b0 U
b110100 Y
b111011 Z
1*
b11100 1
#31500
0&
0+
0>
b10111111 2
b11110 ,
1F
1E
1C
1B
#32000
1&
1+
1>
b1000 I
b111 I
b110 I
b101 I
b100 I
b11 I
b10 I
b1 I
b0 I
b10100101 3
b10101 /
b1110011111 H
b1100111 K
b1100001 N
b110100 O
b0 P
b111011 Q
b0 R
b100011 S
b10000 T
0=
1<
19
b1100001 V
b1100001 Y
b1100001 [
b1100001 J
1=
0<
0;
09
17
0*
b11101 1
#32500
0&
0+
0>
b11011100 2
b11111 ,
0G
0F
0B
1A
#33000
1&
1+
1>
b1000 I
b111 I
b110 I
b101 I
b100 I
b11 I
b10 I
b1 I
b0 I
b11100001 3
b10110 /
b10001101011 H
b1111101 K
b0 N
b1100001 O
b110100 P
b1101101 Q
b111011 R
b0 S
b100011 T
0=
1<
1:
19
b111011 X
b1101101 W
b1101101 Z
b1101101 [
b1101101 J
0<
09
08
07
06
15
1*
b11110 1
#33500
0&
0+
0>
b11010011 2
b100000 ,
1G
1F
0E
0D
#34000
1&
1+
1>
b1000 I
b111 I
b110 I
b101 I
b100 I
b11 I
b10 I
b1 I
b0 I
b100001000 3
b10111 /
b10100011011 H
b10010001 K
b10001001 O
b1100001 P
b110100 Q
b1101101 R
b111011 S
b0 T
1<
1;
19
b1101101 X
b1100001 W
b10001001 V
b10001001 Y
b10001001 [
b10001001 J
1=
0<
18
0*
b11111 1
#34500
0&
0+
0>
b10011100 2
b100001 ,
0G
0F
1E
1D
0A
#35000
1&
1+
1>
b1000 I
b111 I
b110 I
b101 I
b100 I
b11 I
b10 I
b1 I
b0 I
b100111101 3
b11000 /
b10011010000 H
b10001000 K
b0 O
b0 P
b1100001 Q
b110100 R
b1101101 S
b111011 T
0=
0:
b0 V
b0 Y
b1101101 [
b1101101 J
08
1*
b100000 1
#35500
0&
0+
0>
b10001111 2
b100010 ,
1G
1F
0C
#36000
1&
1+
1>
b1000 I
b111 I
b110 I
b101 I
b100 I
b11 I
b10 I
b1 I
b0 I
b100010100 3
b11001 /
b10100100100 H
b10010010 K
b10001111 L
b10001001 Q
b1100001 R
b110100 S
b1101101 T
1=
1<
1:
b1100001 X
b10001001 W
b10001111 U
b10001111 Y
b10001001 Z
b10001111 [
b10001111 J
0<
0:
09
17
0*
b100001 1
#36500
0&
0+
0>
b11111000 2
b100011 ,
0G
0F
0E
1C
1B
1A
#37000
1&
1+
1>
b1000 I
b111 I
b110 I
b101 I
b100 I
b11 I
b10 I
b1 I
b0 I
b101000101 3
b11010 /
b10110101111 H
b10100001 K
b0 L
b10001111 M
b10011100 N
b0 Q
b10001001 R
b1100001 S
b110100 T
0=
1<
19
b10001001 X
b0 W
b10011100 V
b10011100 Y
b10011100 [
b10011100 J
1=
0<
09
18
1*
b100010 1
#37500
0&
0+
0>
b11101001 2
b100100 ,
1G
0C
#38000
1&
1+
1>
b1000 I
b111 I
b110 I
b101 I
b100 I
b11 I
b10 I
b1 I
b0 I
b101100101 3
b11011 /
b11001100100 H
b10110101 K
b0 M
b10001111 N
b10011100 O
b0 R
b10001001 S
b1100001 T
0=
1:
19
b0 U
0*
b100011 1
#38500
0&
0+
0>
b1010000 2
b100101 ,
0G
0D
1C
0B
0@
#39000
1&
1+
1>
b1000 I
b111 I
b110 I
b101 I
b100 I
b11 I
b10 I
b1 I
b0 I
b101111100 3
b11100 /
b11001010011 H
b10110011 K
b1010000 L
b0 N
b10001111 O
b10011100 P
b0 S
b10001001 T
1=
0;
b0 X
b10011100 W
b10001111 V
b1010000 U
b10001111 Y
b10011100 Z
1*
b100100 1
#39500
0&
0+
0>
b10100011 2
b100110 ,
1G
1F
0C
1B
0A
1@
#40000
1&
1+
1>
b1000 I
b111 I
b110 I
b101 I
b100 I
b11 I
b10 I
b1 I
b0 I
b101111001 3
b11101 /
b11001101101 H
b10110110 K
b10100011 L
b1010000 M
b0 O
b10001111 P
b10011100 Q
b0 T
1;
b0 V
b10100011 U
b10100011 Y
b10100011 [
b10100011 J
0:
09
08
07
16
0*
b100101 1
#40500
0&
0+
0>
b11111011 2
b100111 ,
1D
1C
1A
#41000
1&
1+
1>
b1000 I
b111 I
b110 I
b101 I
b100 I
b11 I
b10 I
b1 I
b0 I
b110000101 3
b11110 /
b11010101001 H
b10111101 K
b0 L
b10100011 M
b1010000 N
b0 P
b10001111 Q
b10011100 R
0=
1:
b10011100 X
b10001111 W
b1010000 V
1*
b100110 1
#41500
0&
0+
0>
b10000011 2
b101000 ,
0D
0C
0B
0A
#42000
1&
1+
1>
b1000 I
b111 I
b110 I
b101 I
b100 I
b11 I
b10 I
b1 I
b0 I
b110001100 3
b11111 /
b11001010000 H
b10110011 K
b10000011 L
b0 M
b10100011 N
b1010000 O
b0 Q
b10001111 R
b10011100 S
1=
0;
0:
b0 W
b10100011 V
b10000011 U
0*
b100111 1
#42500
0&
0+
0>
b1101100 2
b101001 ,
0G
0F
1E
1D
1B
1A
0@
#43000
1&
1+
1>
b1000 I
b111 I
b110 I
b101 I
b100 I
b11 I
b10 I
b1 I
b0 I
b110000001 3
b100000 /
b10111101001 H
b10101000 K
b1101100 L
b10000011 M
b0 N
b10100011 O
b1010000 P
b0 R
b10001111 S
b10011100 T
0=
1;
19
18
17
06
b10001111 X
b1010000 W
b10001111 Z
1*
b101000 1
#43500
0&
0+
0>
b10110000 2
b101010 ,
0E
0D
1C
0A
1@
#44000
1&
1+
1>
b1000 I
b111 I
b110 I
b101 I
b100 I
b11 I
b10 I
b1 I
b0 I
b101110100 3
b100001 /
b10111111101 H
b10101010 K
b0 L
b1101100 M
b10000011 N
b0 O
b10100011 P
b1010000 Q
b0 S
b10001111 T
1=
1<
b0 X
b10100011 W
b10000011 V
b1101100 U
b10000011 Y
b10100011 Z
0*
b101001 1
#44500
0&
0+
0>
b1100100 2
b101011 ,
1E
0C
1A
0@
#45000
1&
1+
1>
b1000 I
b111 I
b110 I
b101 I
b100 I
b11 I
b10 I
b1 I
b0 I
b101110111 3
b100010 /
b10111010010 H
b10100101 K
b1100100 L
b0 M
b1101100 N
b10000011 O
b0 P
b10100011 Q
b1010000 R
b0 T
0<
0;
b1010000 X
b1100100 U
1*
b101010 1
#45500
0&
0+
0>
b1010 2
b101100 ,
1F
0E
1D
0B
0A
#46000
1&
1+
1>
b1000 I
b111 I
b110 I
b101 I
b100 I
b11 I
b10 I
b1 I
b0 I
b101110001 3
b100011 /
b10011100100 H
b10001011 K
b1010 L
b1100100 M
b0 N
b1101100 O
b10000011 P
b0 Q
b0 R
b1010000 S
1<
08
b10000011 W
b1101100 V
b1101100 Y
b10000011 Z
b10000011 [
b10000011 J
1;
1:
09
18
07
0*
b101011 1
#46500
0&
0+
0>
b11000101 2
b101101 ,
1G
0F
1E
0D
1A
1@
#47000
1&
1+
1>
b1000 I
b111 I
b110 I
b101 I
b100 I
b11 I
b10 I
b1 I
b0 I
b100101111 3
b100100 /
b10011000000 H
b10000111 K
b0 L
b1010 M
b1100100 N
b0 O
b1101100 P
b10000011 Q
b0 S
b1010000 T
0;
b0 X
b1100100 V
b1010 U
b1100100 Y
1*
b101100 1
#47500
0&
0+
0>
b1011010 2
b101110 ,
0G
1F
0E
1D
1C
0@
#48000
1&
1+
1>
b1000 I
b111 I
b110 I
b101 I
b100 I
b11 I
b10 I
b1 I
b0 I
b100101011 3
b100101 /
b10011001010 H
b10001000 K
b1011010 L
b0 M
b1010 N
b1100100 O
b0 P
b1101100 Q
b10000011 R
b0 T
0=
0<
1;
b10000011 X
b1101100 W
b1011010 U
0*
b101101 1
#48500
0&
0+
0>
b100 2
b101111 ,
0F
1E
0D
0C
0A
#49000
1&
1+
1>
b1000 I
b111 I
b110 I
b101 I
b100 I
b11 I
b10 I
b1 I
b0 I
b100101100 3
b100110 /
b10000101011 H
b1110110 K
b100 L
b1011010 M
b0 N
b1010 O
b1100100 P
b0 Q
b1101100 R
0;
19
08
b1101100 X
b1100100 W
b1010 V
b1011010 Y
b1101100 Z
b1101100 [
b1101100 J
1<
1;
18
17
16
05
1*
b101110 1
#49500
0&
0+
0>
b1111001 2
b110000 ,
1G
0E
1D
1C
1B
1A
#50000
1&
1+
1>
b1000 I
b111 I
b110 I
b101 I
b100 I
b11 I
b10 I
b1 I
b0 I
b11111110 3
b100111 /
b1110101001 H
b1101000 K
b0 L
b100 M
b1011010 N
b0 O
b1010 P
b1100100 Q
b0 R
09
b0 X
b1011010 V
b100 U
b1100100 Z
b1100100 [
b1100100 J
1=
0<
0:
0*
b101111 1
#50500
0&
0+
0>
b101 2
b110001 ,
1E
0D
0C
0B
0A
#51000
1&
1+
1>
b1000 I
b111 I
b110 I
b101 I
b100 I
b11 I
b10 I
b1 I
b0 I
b11100101 3
b101000 /
b1100101011 H
b1011010 K
b101 L
b0 M
b100 N
b1011010 O
b0 P
b1010 Q
19
08
b1010 W
b101 U
b1010 Z
b1011010 [
b1011010 J
0=
1<
0;
1:
09
1*
b110000 1
#51500
0&
0+
0>
b10011000 2
b110010 ,
0G
0E
1D
1C
1@
#52000
1&
1+
1>
b1000 I
b111 I
b110 I
b101 I
b100 I
b11 I
b10 I
b1 I
b0 I
b11001010 3
b101001 /
b1101010111 H
b1011111 K
b0 L
b101 M
b0 N
b100 O
b1011010 P
b0 Q
b1010 R
0<
0:
19
b1010 X
b1011010 W
b100 V
b101 Y
b1011010 Z
0*
b110001 1
#52500
0&
0+
0>
b111010 2
b110011 ,
1F
1B
0@
#53000
1&
1+
1>
b1000 I
b111 I
b110 I
b101 I
b100 I
b11 I
b10 I
b1 I
b0 I
b11010000 3
b101010 /
b1011100001 H
b1010001 K
b111010 L
b0 M
b101 N
b0 O
b100 P
b0 R
b1010 S
1=
09
b100 W
b101 V
b111010 U
b111010 Y
b1010 Z
b111010 [
b111010 J
1;
1:
19
07
1*
b110010 1
#53500
0&
0+
0>
b111011 2
b110100 ,
1G
#54000
1&
1+
1>
b1000 I
b111 I
b110 I
b101 I
b100 I
b11 I
b10 I
b1 I
b0 I
b10011101 3
b101011 /
b1010111000 H
b1001101 K
b111011 L
b111010 M
b0 N
b101 O
b0 P
b100 Q
b0 S
b1010 T
0=
0;
b0 X
b111011 U
b111011 Y
b100 Z
b111011 [
b111011 J
1=
0*
b110011 1
#54500
0&
0+
0>
b11000011 2
b110101 ,
0D
0C
0B
1A
1@
#55000
1&
1+
1>
b1000 I
b111 I
b110 I
b101 I
b100 I
b11 I
b10 I
b1 I
b0 I
b10011001 3
b101100 /
b1101110001 H
b1100001 K
b0 L
b111011 M
b111010 N
b0 O
b101 P
b0 Q
b100 R
b1011010 S
b0 T
0=
0:
18
b1011010 X
b101 W
b111010 V
b1011010 Z
b1011010 [
b1011010 J
1=
1<
08
17
1*
b110100 1
#55500
0&
0+
0>
b101101 2
b110110 ,
0F
1E
1D
1B
0A
0@
#56000
1&
1+
1>
b1000 I
b111 I
b110 I
b101 I
b100 I
b11 I
b10 I
b1 I
b0 I
b11010011 3
b101101 /
b1011011001 H
b1010001 K
b101101 L
b0 M
b111011 N
b111010 O
b0 P
b101 Q
b0 R
b100 S
0=
0<
09
b100 X
b111011 V
b101101 U
b101 Z
b111011 [
b111011 J
1=
1;
1:
19
07
0*
b110101 1
#56500
0&
0+
0>
b10010110 2
b110111 ,
0G
1F
0D
1C
0B
1@
#57000
1&
1+
1>
b1000 I
b111 I
b110 I
b101 I
b100 I
b11 I
b10 I
b1 I
b0 I
b10011101 3
b101110 /
b1100010101 H
b1010111 K
b0 L
b101101 M
b0 N
b111011 O
b111010 P
b0 Q
b101 R
b0 S
b100 T
0:
09
18
b101 X
b111010 W
b111010 Z
1*
b110110 1
#57500
0&
0+
0>
b10101000 2
b111000 ,
0F
0E
1D
0C
1B
#58000
1&
1+
1>
b1000 I
b111 I
b110 I
b101 I
b100 I
b11 I
b10 I
b1 I
b0 I
b10100101 3
b101111 /
b1110111001 H
b1101001 K
b0 M
b101101 N
b0 O
b111011 P
b111010 Q
b0 R
b101 S
b0 T
0;
1:
19
b111011 W
b101101 V
b0 U
b101101 Y
b111011 Z
0*
b110111 1
#58500
0&
0+
0>
b10101110 2
b111001 ,
1F
1E
#59000
1&
1+
1>
b1000 I
b111 I
b110 I
b101 I
b100 I
b11 I
b10 I
b1 I
b0 I
b10111001 3
b110000 /
b1111101110 H
b1101111 K
b0 N
b101101 O
b0 P
b111011 Q
b111010 R
b0 S
b101 T
0=
0:
09
08
17
b111010 X
1*
b111000 1
#59500
0&
0+
0>
b10101101 2
b111010 ,
1G
0F
#60000
1&
1+
1>
b1000 I
b111 I
b110 I
b101 I
b100 I
b11 I
b10 I
b1 I
b0 I
b11000000 3
b110001 /
b10010010110 H
b10000010 K
b0 O
b101101 P
b0 Q
b111011 R
b111010 S
b0 T
1=
1;
19
b111011 X
b101101 W
b0 V
b0 Y
0*
b111001 1
#60500
0&
0+
0>
b1110 2
b111011 ,
0G
1F
0B
0@
#61000
1&
1+
1>
b1000 I
b111 I
b110 I
b101 I
b100 I
b11 I
b10 I
b1 I
b0 I
b11010101 3
b110010 /
b10000001100 H
b1110011 K
b1110 L
b0 P
b101101 Q
b0 R
b111011 S
b111010 T
1<
0;
09
b1110 U
b1110 Y
1*
b111010 1
#61500
0&
0+
0>
b11010101 2
b111100 ,
1G
0F
0D
1C
1A
1@
#62000
1&
1+
1>
b1000 I
b111 I
b110 I
b101 I
b100 I
b11 I
b10 I
b1 I
b0 I
b11000011 3
b110011 /
b10010100111 H
b10000100 K
b0 L
b1110 M
b0 Q
b101101 R
b0 S
b111011 T
1;
19
b101101 X
b0 W
b101101 Z
b101101 [
0*
b111011 1
#62500
0&
0+
0>
b11011101 2
b111101 ,
1D
#63000
1&
1+
1>
b1000 I
b111 I
b110 I
b101 I
b100 I
b11 I
b10 I
b1 I
b0 I
b11010111 3
b110100 /
b10101001001 H
b10010110 K
b0 M
b1110 N
b10010110 R
b101101 S
b0 T
0;
1:
09
18
b101101 J
b10010110 X
b1110 V
b0 U
b10010110 Z
19
08
b10010110 [
b10010110 J
0<
0:
06
15
1*
b111100 1
#63500
0&
0+
0>
b11011000 2
b111110 ,
0G
0E
#64000
1&
1+
1>
b1000 I
b111 I
b110 I
b101 I
b100 I
b11 I
b10 I
b1 I
b0 I
b101010001 3
b110101 /
b10101011110 H
b10011000 K
b0 N
b1110 O
b0 R
b10010110 S
b101101 T
0=
1;
0*
b111101 1
#64500
0&
0+
0>
b110110 2
b111111 ,
1F
1E
0D
1B
0A
0@
#65000
1&
1+
1>
b1000 I
b111 I
b110 I
b101 I
b100 I
b11 I
b10 I
b1 I
b0 I
b101010100 3
b110110 /
b10101100111 H
b10011001 K
b110110 L
b0 O
b1110 P
b0 S
b10010110 T
1=
b0 X
b1110 W
b0 V
b110110 U
b110110 Y
b1110 Z
b110110 [
1*
b111110 1
#65500
0&
0+
0>
b10000011 2
b1000000 ,
1G
0E
0C
0B
1@
