2007/contest_file/LCD_CTRL.vcd
$date
	Tue Feb 18 14:42:57 2025
$end
$version
	ModelSim Version 10.5b
$end
$timescale
	10ps
$end

$scope module test $end
$var parameter 32 ! IMAGE_N_PAT $end
$var parameter 32 " CMD_N_PAT $end
$var parameter 32 # OUT_LENGTH $end
$var parameter 32 $ t_reset $end
$var reg 1 % clk $end
$var reg 1 & reset $end
$var reg 8 ' datain [7:0] $end
$var reg 3 ( cmd [2:0] $end
$var reg 1 ) cmd_valid $end
$var wire 1 * dataout [7] $end
$var wire 1 + dataout [6] $end
$var wire 1 , dataout [5] $end
$var wire 1 - dataout [4] $end
$var wire 1 . dataout [3] $end
$var wire 1 / dataout [2] $end
$var wire 1 0 dataout [1] $end
$var wire 1 1 dataout [0] $end
$var wire 1 2 output_valid $end
$var wire 1 3 busy $end
$var reg 8 4 out_temp [7:0] $end
$var reg 1 5 stop $end
$var integer 32 6 i $end
$var integer 32 7 j $end
$var integer 32 8 out_f $end
$var integer 32 9 err $end
$var integer 32 : pattern_num $end
$var reg 1 ; over $end

$scope module top $end
$var parameter 32 < Reflash $end
$var parameter 32 = Load $end
$var parameter 32 > Right $end
$var parameter 32 ? Left $end
$var parameter 32 @ Up $end
$var parameter 32 A Down $end
$var parameter 32 B DECODE $end
$var parameter 32 C LOAD $end
$var parameter 32 D CAL $end
$var parameter 32 E DISPLAY $end
$var wire 1 F clk $end
$var wire 1 G reset $end
$var wire 1 H datain [7] $end
$var wire 1 I datain [6] $end
$var wire 1 J datain [5] $end
$var wire 1 K datain [4] $end
$var wire 1 L datain [3] $end
$var wire 1 M datain [2] $end
$var wire 1 N datain [1] $end
$var wire 1 O datain [0] $end
$var wire 1 P cmd [2] $end
$var wire 1 Q cmd [1] $end
$var wire 1 R cmd [0] $end
$var wire 1 S cmd_valid $end
$var reg 8 T dataout [7:0] $end
$var reg 1 U output_valid $end
$var reg 1 V busy $end
$var reg 3 W state [2:0] $end
$var reg 3 X next_state [2:0] $end
$var reg 6 Y cnt [5:0] $end
$var reg 6 Z mul [5:0] $end
$var reg 6 [ i [5:0] $end
$var reg 6 \ outcnt [5:0] $end
$var reg 6 ] out_x [5:0] $end
$var reg 6 ^ out_y [5:0] $end
$var reg 3 _ cmd_reg [2:0] $end
$upscope $end
$upscope $end
$enddefinitions $end
#0
$dumpvars
0%
0&
bx '
bx (
0)
bx 4
05
0;
bx T
xU
xV
bx W
bx X
bx Y
bx Z
bx [
bx \
bx ]
bx ^
bx _
b100100 !
b11110 "
b100001110 #
b11001000 $
b0 <
b1 =
b10 >
b11 ?
b100 @
b101 A
b0 B
b1 C
b10 D
b11 E
bx 6
bx 7
b10 8
b0 9
b0 :
x1
x0
x/
x.
x-
x,
x+
x*
x2
x3
0S
xR
xQ
xP
xO
xN
xM
xL
xK
xJ
xI
xH
0G
0F
$end
#5000
1%
1F
b1100110 4
#10000
0%
0F
1&
1G
b0 [
b1 [
b10 [
b11 [
b100 [
b101 [
b110 [
b111 [
b1000 [
b1001 [
b1010 [
b1011 [
b1100 [
b1101 [
b1110 [
b1111 [
b10000 [
b10001 [
b10010 [
b10011 [
b10100 [
b10101 [
b10110 [
b10111 [
b11000 [
b11001 [
b11010 [
b11011 [
b11100 [
b11101 [
b11110 [
b11111 [
b100000 [
b100001 [
b100010 [
b100011 [
b100100 [
b0 W
b0 Y
b0 \
b0 Z
0V
03
bx Z
b0 X
#15000
1%
1F
b0 [
b1 [
b10 [
b11 [
b100 [
b101 [
b110 [
b111 [
b1000 [
b1001 [
b1010 [
b1011 [
b1100 [
b1101 [
b1110 [
b1111 [
b10000 [
b10001 [
b10010 [
b10011 [
b10100 [
b10101 [
b10110 [
b10111 [
b11000 [
b11001 [
b11010 [
b11011 [
b11100 [
b11101 [
b11110 [
b11111 [
b100000 [
b100001 [
b100010 [
b100011 [
b100100 [
b0 Z
#20000
0%
0F
#25000
1%
1F
b0 [
b1 [
b10 [
b11 [
b100 [
b101 [
b110 [
b111 [
b1000 [
b1001 [
b1010 [
b1011 [
b1100 [
b1101 [
b1110 [
b1111 [
b10000 [
b10001 [
b10010 [
b10011 [
b10100 [
b10101 [
b10110 [
b10111 [
b11000 [
b11001 [
b11010 [
b11011 [
b11100 [
b11101 [
b11110 [
b11111 [
b100000 [
b100001 [
b100010 [
b100011 [
b100100 [
#30000
0&
0%
0G
0F
b0 6
b1 (
1)
b0 7
1R
0Q
0P
1S
b1 _
b1 X
#35000
1%
1F
b1 W
1V
0U
13
02
#40000
0%
0F
b100000 '
bz (
0)
b1 7
0O
0N
0M
0L
0K
1J
0I
0H
zR
zQ
zP
0S
#45000
1%
1F
b1 Y
b10 ]
b10 ^
b1110 Z
#50000
0%
0F
b1010111 '
b10 7
1O
1N
1M
1K
0J
1I
#55000
1%
1F
b10 Y
#60000
0%
0F
b110000 '
b11 7
0O
0N
0M
1J
0I
#65000
1%
1F
b11 Y
#70000
0%
0F
b11101011 '
b100 7
1O
1N
1L
0K
1I
1H
#75000
1%
1F
b100 Y
#80000
0%
0F
b10101111 '
b101 7
1M
0I
#85000
1%
1F
b101 Y
#90000
0%
0F
b11101100 '
b110 7
0O
0N
1I
#95000
1%
1F
b110 Y
#100000
0%
0F
b1001001 '
b111 7
1O
0M
0J
0H
#105000
1%
1F
b111 Y
#110000
0%
0F
b10010011 '
b1000 7
1N
0L
1K
0I
1H
#115000
1%
1F
b1000 Y
#120000
0%
0F
b100010 '
b1001 7
0O
0K
1J
0H
#125000
1%
1F
b1001 Y
#130000
0%
0F
b1100111 '
b1010 7
1O
1M
1I
#135000
1%
1F
b1010 Y
#140000
0%
0F
b10100000 '
b1011 7
0O
0N
0M
0I
1H
#145000
1%
1F
b1011 Y
#150000
0%
0F
b101 '
b1100 7
1O
1M
0J
0H
#155000
1%
1F
b1100 Y
#160000
0%
0F
b1000100 '
b1101 7
0O
1I
#165000
1%
1F
b1101 Y
#170000
0%
0F
b1100010 '
b1110 7
1N
0M
1J
#175000
1%
1F
b1110 Y
#180000
0%
0F
b1100110 '
b1111 7
1M
#185000
1%
1F
b1111 Y
#190000
0%
0F
b11001100 '
b10000 7
0N
1L
0J
1H
#195000
1%
1F
b10000 Y
#200000
0%
0F
b1110110 '
b10001 7
1N
0L
1K
1J
0H
#205000
1%
1F
b10001 Y
#210000
0%
0F
b10010111 '
b10010 7
1O
0J
0I
1H
#215000
1%
1F
b10010 Y
#220000
0%
0F
b101000 '
b10011 7
0O
0N
0M
1L
0K
1J
0H
#225000
1%
1F
b10011 Y
#230000
0%
0F
b1001 '
b10100 7
1O
0J
#235000
1%
1F
b10100 Y
#240000
0%
0F
b11111111 '
b10101 7
1N
1M
1K
1J
1I
1H
#245000
1%
1F
b10101 Y
#250000
0%
0F
b1000000 '
b10110 7
0O
0N
0M
0L
0K
0J
0H
#255000
1%
1F
b10110 Y
#260000
0%
0F
b11000 '
b10111 7
1L
1K
0I
#265000
1%
1F
b10111 Y
#270000
0%
0F
b10000000 '
b11000 7
0L
0K
1H
#275000
1%
1F
b11000 Y
#280000
0%
0F
b11110000 '
b11001 7
1K
1J
1I
#285000
1%
1F
b11001 Y
#290000
0%
0F
b11101001 '
b11010 7
1O
1L
0K
#295000
1%
1F
b11010 Y
#300000
0%
0F
b11101010 '
b11011 7
0O
1N
#305000
1%
1F
b11011 Y
#310000
0%
0F
b10000111 '
b11100 7
1O
1M
0L
0J
0I
#315000
1%
1F
b11100 Y
#320000
0%
0F
b11011101 '
b11101 7
0N
1L
1K
1I
#325000
1%
1F
b11101 Y
#330000
0%
0F
b11101101 '
b11110 7
0K
1J
#335000
1%
1F
b11110 Y
#340000
0%
0F
b11010100 '
b11111 7
0O
0L
1K
0J
#345000
1%
1F
b11111 Y
#350000
0%
0F
b11010011 '
b100000 7
1O
1N
0M
#355000
1%
1F
b100000 Y
#360000
0%
0F
b10111011 '
b100001 7
1L
1J
0I
#365000
1%
1F
b100001 Y
#370000
0%
0F
b11110100 '
b100010 7
0O
0N
1M
0L
1I
#375000
1%
1F
b100010 Y
#380000
0%
0F
b1110111 '
b100011 7
1O
1N
0H
#385000
1%
1F
b100011 Y
b11 X
#390000
0%
0F
b1010010 '
b100100 7
0O
0M
0J
#395000
1%
1F
b11 W
b100100 Y
#400000
0%
0F
bx '
b100101 7
b1 6
bz '
zO
zN
zM
zL
zK
zJ
zI
zH
#405000
1%
1F
1U
b1100110 T
b1 \
12
01
10
1/
0.
0-
1,
1+
0*
b1111 Z
#410000
0%
0F
#415000
1%
1F
b1 :
b11001100 T
b10 \
00
1.
0,
1*
b10000 Z
#420000
0%
0F
#425000
1%
1F
b11001100 4
b10 :
b1110110 T
b11 \
10
0.
1-
1,
0*
b10100 Z
#430000
0%
0F
#435000
1%
1F
b1110110 4
b11 :
b11111111 T
b100 \
11
1.
1*
b10101 Z
#440000
0%
0F
#445000
1%
1F
b11111111 4
b100 :
b1000000 T
b101 \
01
00
0/
0.
0-
0,
0*
b10110 Z
#450000
0%
0F
#455000
1%
1F
b1000000 4
b101 :
b11000 T
b110 \
1.
1-
0+
b11010 Z
#460000
0%
0F
#465000
1%
1F
b11000 4
b110 :
b11101010 T
b111 \
10
0-
1,
1+
1*
b11011 Z
#470000
0%
0F
#475000
1%
1F
b11101010 4
b111 :
b10000111 T
b1000 \
11
1/
0.
0,
0+
b11100 Z
#480000
0%
0F
#485000
1%
1F
b10000111 4
b1000 :
b11011101 T
b1001 \
00
1.
1-
1+
b0 X
b11101 Z
#490000
0%
0F
#495000
1%
1F
b11011101 4
b1001 :
b0 W
0V
0U
03
02
#500000
0%
0F
b1 (
1)
b0 7
1R
0Q
0P
1S
b1 X
#505000
1%
1F
b1100110 4
b1 W
b0 Y
b0 \
1V
13
b1110 Z
#510000
0%
0F
b100000 '
bz (
0)
b1 7
0O
0N
0M
0L
0K
1J
0I
0H
zR
zQ
zP
0S
#515000
1%
1F
b1 Y
#520000
0%
0F
b1010111 '
b10 7
1O
1N
1M
1K
0J
1I
#525000
1%
1F
b10 Y
#530000
0%
0F
b110000 '
b11 7
0O
0N
0M
1J
0I
#535000
1%
1F
b11 Y
#540000
0%
0F
b11101011 '
b100 7
1O
1N
1L
0K
1I
1H
#545000
1%
1F
b100 Y
#550000
0%
0F
b10101111 '
b101 7
1M
0I
#555000
1%
1F
b101 Y
#560000
0%
0F
b11101100 '
b110 7
0O
0N
1I
#565000
1%
1F
b110 Y
#570000
0%
0F
b1001001 '
b111 7
1O
0M
0J
0H
#575000
1%
1F
b111 Y
#580000
0%
0F
b10010011 '
b1000 7
1N
0L
1K
0I
1H
#585000
1%
1F
b1000 Y
#590000
0%
0F
b100010 '
b1001 7
0O
0K
1J
0H
#595000
1%
1F
b1001 Y
#600000
0%
0F
b1100111 '
b1010 7
1O
1M
1I
#605000
1%
1F
b1010 Y
#610000
0%
0F
b10100000 '
b1011 7
0O
0N
0M
0I
1H
#615000
1%
1F
b1011 Y
#620000
0%
0F
b101 '
b1100 7
1O
1M
0J
0H
#625000
1%
1F
b1100 Y
#630000
0%
0F
b1000100 '
b1101 7
0O
1I
#635000
1%
1F
b1101 Y
#640000
0%
0F
b1100010 '
b1110 7
1N
0M
1J
#645000
1%
1F
b1110 Y
#650000
0%
0F
b1100110 '
b1111 7
1M
#655000
1%
1F
b1111 Y
#660000
0%
0F
b11001100 '
b10000 7
0N
1L
0J
1H
#665000
1%
1F
b10000 Y
#670000
0%
0F
b1110110 '
b10001 7
1N
0L
1K
1J
0H
#675000
1%
1F
b10001 Y
#680000
0%
0F
b10010111 '
b10010 7
1O
0J
0I
1H
#685000
1%
1F
b10010 Y
#690000
0%
0F
b101000 '
b10011 7
0O
0N
0M
1L
0K
1J
0H
#695000
1%
1F
b10011 Y
#700000
0%
0F
b1001 '
b10100 7
1O
0J
#705000
1%
1F
b10100 Y
#710000
0%
0F
b11111111 '
b10101 7
1N
1M
1K
1J
1I
1H
#715000
1%
1F
b10101 Y
#720000
0%
0F
b1000000 '
b10110 7
0O
0N
0M
0L
0K
0J
0H
#725000
1%
1F
b10110 Y
#730000
0%
0F
b11000 '
b10111 7
1L
1K
0I
#735000
1%
1F
b10111 Y
#740000
0%
0F
b10000000 '
b11000 7
0L
0K
1H
#745000
1%
1F
b11000 Y
#750000
0%
0F
b11110000 '
b11001 7
1K
1J
1I
#755000
1%
1F
b11001 Y
#760000
0%
0F
b11101001 '
b11010 7
1O
1L
0K
#765000
1%
1F
b11010 Y
#770000
0%
0F
b11101010 '
b11011 7
0O
1N
#775000
1%
1F
b11011 Y
#780000
0%
0F
b10000111 '
b11100 7
1O
1M
0L
0J
0I
#785000
1%
1F
b11100 Y
#790000
0%
0F
b11011101 '
b11101 7
0N
1L
1K
1I
#795000
1%
1F
b11101 Y
#800000
0%
0F
b11101101 '
b11110 7
0K
1J
#805000
1%
1F
b11110 Y
#810000
0%
0F
b11010100 '
b11111 7
0O
0L
1K
0J
#815000
1%
1F
b11111 Y
#820000
0%
0F
b11010011 '
b100000 7
1O
1N
0M
#825000
1%
1F
b100000 Y
#830000
0%
0F
b10111011 '
b100001 7
1L
1J
0I
#835000
1%
1F
b100001 Y
#840000
0%
0F
b11110100 '
b100010 7
0O
0N
1M
0L
1I
#845000
1%
1F
b100010 Y
#850000
0%
0F
b1110111 '
b100011 7
1O
1N
0H
#855000
1%
1F
b100011 Y
b11 X
#860000
0%
0F
b1010010 '
b100100 7
0O
0M
0J
#865000
1%
1F
b11 W
b100100 Y
#870000
0%
0F
bx '
b100101 7
b10 6
bz '
zO
zN
zM
zL
zK
zJ
zI
zH
#875000
1%
1F
1U
b1100110 T
b1 \
12
01
10
0.
0-
1,
0*
b1111 Z
#880000
0%
0F
#885000
1%
1F
b1010 :
b11001100 T
b10 \
00
1.
0,
1*
b10000 Z
#890000
0%
0F
#895000
1%
1F
b11001100 4
b1011 :
b1110110 T
b11 \
10
0.
1-
1,
0*
b10100 Z
#900000
0%
0F
#905000
1%
1F
b1110110 4
b1100 :
b11111111 T
b100 \
11
1.
1*
b10101 Z
#910000
0%
0F
#915000
1%
1F
b11111111 4
b1101 :
b1000000 T
b101 \
01
00
0/
0.
0-
0,
0*
b10110 Z
#920000
0%
0F
#925000
1%
1F
b1000000 4
b1110 :
b11000 T
b110 \
1.
1-
0+
b11010 Z
#930000
0%
0F
#935000
1%
1F
b11000 4
b1111 :
b11101010 T
b111 \
10
0-
1,
1+
1*
b11011 Z
#940000
0%
0F
#945000
1%
1F
b11101010 4
b10000 :
b10000111 T
b1000 \
11
1/
0.
0,
0+
b11100 Z
#950000
0%
0F
#955000
1%
1F
b10000111 4
b10001 :
b11011101 T
b1001 \
00
1.
1-
1+
b0 X
b11101 Z
#960000
0%
0F
#965000
1%
1F
b11011101 4
b10010 :
b0 W
0V
0U
03
02
#970000
0%
0F
b10 (
1)
0R
1Q
0P
1S
b10 _
b10 X
#975000
1%
1F
b11001100 4
b10 W
b0 Y
b0 \
1V
13
b1110 Z
b11 X
#980000
0%
0F
0)
b11 6
bz (
0S
zR
zQ
zP
#985000
1%
1F
b11 W
b11 ]
b1111 Z
#990000
0%
0F
#995000
1%
1F
1U
b11001100 T
b1 \
12
01
0-
b10000 Z
#1000000
0%
0F
#1005000
1%
1F
b10011 :
b1110110 T
b10 \
10
0.
1-
1,
0*
b10001 Z
#1010000
0%
0F
#1015000
1%
1F
b1110110 4
b10100 :
b10010111 T
b11 \
11
0,
0+
1*
b10101 Z
#1020000
0%
0F
#1025000
1%
1F
b10010111 4
b10101 :
b1000000 T
b100 \
01
00
0/
0-
1+
0*
b10110 Z
#1030000
0%
0F
#1035000
1%
1F
b1000000 4
b10110 :
b11000 T
b101 \
1.
1-
0+
b10111 Z
#1040000
0%
0F
#1045000
1%
1F
b11000 4
b10111 :
b10000000 T
b110 \
0.
0-
1*
b11011 Z
#1050000
0%
0F
#1055000
1%
1F
b10000000 4
b11000 :
b10000111 T
b111 \
11
10
1/
b11100 Z
#1060000
0%
0F
#1065000
1%
1F
b10000111 4
b11001 :
b11011101 T
b1000 \
00
1.
1-
1+
b11101 Z
#1070000
0%
0F
#1075000
1%
1F
b11011101 4
b11010 :
b11101101 T
b1001 \
0-
1,
b0 X
b11110 Z
#1080000
0%
0F
#1085000
1%
1F
b11101101 4
b11011 :
b0 W
0V
0U
03
02
#1090000
0%
0F
b10 (
1)
0R
1Q
0P
1S
b10 X
#1095000
1%
1F
b11001100 4
b10 W
b0 \
1V
13
b1111 Z
b11 X
#1100000
0%
0F
0)
b100 6
bz (
0S
zR
zQ
zP
#1105000
1%
1F
b11 W
#1110000
0%
0F
#1115000
1%
1F
1U
b11001100 T
b1 \
12
01
0,
b10000 Z
#1120000
0%
0F
#1125000
1%
1F
b11100 :
b1110110 T
b10 \
10
0.
1-
1,
0*
b10001 Z
#1130000
0%
0F
#1135000
1%
1F
b1110110 4
b11101 :
b10010111 T
b11 \
11
0,
0+
1*
b10101 Z
#1140000
0%
0F
#1145000
1%
1F
b10010111 4
b11110 :
b1000000 T
b100 \
01
00
0/
0-
1+
0*
b10110 Z
#1150000
0%
0F
#1155000
1%
1F
b1000000 4
b11111 :
b11000 T
b101 \
1.
1-
0+
b10111 Z
#1160000
0%
0F
#1165000
1%
1F
b11000 4
b100000 :
b10000000 T
b110 \
0.
0-
1*
b11011 Z
#1170000
0%
0F
#1175000
1%
1F
b10000000 4
b100001 :
b10000111 T
b111 \
11
10
1/
b11100 Z
#1180000
0%
0F
#1185000
1%
1F
b10000111 4
b100010 :
b11011101 T
b1000 \
00
1.
1-
1+
b11101 Z
#1190000
0%
0F
#1195000
1%
1F
b11011101 4
b100011 :
b11101101 T
b1001 \
0-
1,
b0 X
b11110 Z
#1200000
0%
0F
#1205000
1%
1F
b11101101 4
b100100 :
b0 W
0V
0U
03
02
#1210000
0%
0F
b101 (
1)
1R
0Q
1P
1S
b101 _
b10 X
#1215000
1%
1F
b1000000 4
b10 W
b0 \
1V
13
b1111 Z
b11 X
#1220000
0%
0F
0)
b101 6
bz (
0S
zR
zQ
zP
#1225000
1%
1F
b11 W
b11 ^
b10101 Z
#1230000
0%
0F
#1235000
1%
1F
1U
b1000000 T
b1 \
12
01
0/
0.
0,
0*
b10110 Z
#1240000
0%
0F
#1245000
1%
1F
b100101 :
b11000 T
b10 \
1.
1-
0+
b10111 Z
#1250000
0%
0F
#1255000
1%
1F
b11000 4
b100110 :
b10000000 T
b11 \
0.
0-
1*
b11011 Z
#1260000
0%
0F
#1265000
1%
1F
b10000000 4
b100111 :
b10000111 T
b100 \
11
10
1/
b11100 Z
#1270000
0%
0F
#1275000
1%
1F
b10000111 4
b101000 :
b11011101 T
b101 \
00
1.
1-
1+
b11101 Z
#1280000
0%
0F
#1285000
1%
1F
b11011101 4
b101001 :
b11101101 T
b110 \
0-
1,
b100001 Z
#1290000
0%
0F
#1295000
1%
1F
b11101101 4
b101010 :
b11110100 T
b111 \
01
0.
1-
b100010 Z
#1300000
0%
0F
#1305000
1%
1F
b11110100 4
b101011 :
b1110111 T
b1000 \
11
10
0*
b100011 Z
#1310000
0%
0F
#1315000
1%
1F
b1110111 4
b101100 :
b1010010 T
b1001 \
01
0/
0,
b0 X
b100100 Z
#1320000
0%
0F
#1325000
1%
1F
b1010010 4
b101101 :
b0 W
0V
0U
03
02
#1330000
0%
0F
b101 (
1)
1R
0Q
1P
1S
b10 X
#1335000
1%
1F
b1000000 4
b10 W
b0 \
1V
13
b10101 Z
b11 X
#1340000
0%
0F
0)
b110 6
bz (
0S
zR
zQ
zP
#1345000
1%
1F
b11 W
#1350000
0%
0F
#1355000
1%
1F
1U
b1000000 T
b1 \
12
00
0-
b10110 Z
#1360000
0%
0F
#1365000
1%
1F
b101110 :
b11000 T
b10 \
1.
1-
0+
b10111 Z
#1370000
0%
0F
#1375000
1%
1F
b11000 4
b101111 :
b10000000 T
b11 \
0.
0-
1*
b11011 Z
#1380000
0%
0F
#1385000
1%
1F
b10000000 4
b110000 :
b10000111 T
b100 \
11
10
1/
b11100 Z
#1390000
0%
0F
#1395000
1%
1F
b10000111 4
b110001 :
b11011101 T
b101 \
00
1.
1-
1+
b11101 Z
#1400000
0%
0F
#1405000
1%
1F
b11011101 4
b110010 :
b11101101 T
b110 \
0-
1,
b100001 Z
#1410000
0%
0F
#1415000
1%
1F
b11101101 4
b110011 :
b11110100 T
b111 \
01
0.
1-
b100010 Z
#1420000
0%
0F
#1425000
1%
1F
b11110100 4
b110100 :
b1110111 T
b1000 \
11
10
0*
b100011 Z
#1430000
0%
0F
#1435000
1%
1F
b1110111 4
b110101 :
b1010010 T
b1001 \
01
0/
0,
b0 X
b100100 Z
#1440000
0%
0F
#1445000
1%
1F
b1010010 4
b110110 :
b0 W
0V
0U
03
02
#1450000
0%
0F
b11 (
1)
1R
1Q
0P
1S
b11 _
b10 X
#1455000
1%
1F
b11111111 4
b10 W
b0 \
1V
13
b10101 Z
b11 X
#1460000
0%
0F
0)
b111 6
bz (
0S
zR
zQ
zP
#1465000
1%
1F
b11 W
b10 ]
b10100 Z
#1470000
0%
0F
#1475000
1%
1F
1U
b11111111 T
b1 \
12
11
1/
1.
1,
1*
b10101 Z
#1480000
0%
0F
#1485000
1%
1F
b110111 :
b1000000 T
b10 \
01
00
0/
0.
0-
0,
0*
b10110 Z
#1490000
0%
0F
#1495000
1%
1F
b1000000 4
b111000 :
b11000 T
b11 \
1.
1-
0+
b11010 Z
#1500000
0%
0F
#1505000
1%
1F
b11000 4
b111001 :
b11101010 T
b100 \
10
0-
1,
1+
1*
b11011 Z
#1510000
0%
0F
#1515000
1%
1F
b11101010 4
b111010 :
b10000111 T
b101 \
11
1/
0.
0,
0+
b11100 Z
#1520000
0%
0F
#1525000
1%
1F
b10000111 4
b111011 :
b11011101 T
b110 \
00
1.
1-
1+
b100000 Z
#1530000
0%
0F
#1535000
1%
1F
b11011101 4
b111100 :
b10111011 T
b111 \
10
0/
1,
0+
b100001 Z
#1540000
0%
0F
#1545000
1%
1F
b10111011 4
b111101 :
b11110100 T
b1000 \
01
00
1/
0.
1+
b100010 Z
#1550000
0%
0F
#1555000
1%
1F
b11110100 4
b111110 :
b1110111 T
b1001 \
11
10
0*
b0 X
b100011 Z
#1560000
0%
0F
#1565000
1%
1F
b1110111 4
b111111 :
b0 W
0V
0U
03
02
#1570000
0%
0F
b101 (
1)
1R
0Q
1P
1S
b101 _
b10 X
#1575000
1%
1F
b11111111 4
b10 W
b0 \
1V
13
b10100 Z
b11 X
#1580000
0%
0F
0)
b1000 6
bz (
0S
zR
zQ
zP
#1585000
1%
1F
b11 W
#1590000
0%
0F
#1595000
1%
1F
1U
b11111111 T
b1 \
12
1.
1*
b10101 Z
#1600000
0%
0F
#1605000
1%
1F
b1000000 :
b1000000 T
b10 \
01
00
0/
0.
0-
0,
0*
b10110 Z
#1610000
0%
0F
#1615000
1%
1F
b1000000 4
b1000001 :
b11000 T
b11 \
1.
1-
0+
b11010 Z
#1620000
0%
0F
#1625000
1%
1F
b11000 4
b1000010 :
b11101010 T
b100 \
10
0-
1,
1+
1*
b11011 Z
#1630000
0%
0F
#1635000
1%
1F
b11101010 4
b1000011 :
b10000111 T
b101 \
11
1/
0.
0,
0+
b11100 Z
#1640000
0%
0F
#1645000
1%
1F
b10000111 4
b1000100 :
b11011101 T
b110 \
00
1.
1-
1+
b100000 Z
#1650000
0%
0F
#1655000
1%
1F
b11011101 4
b1000101 :
b10111011 T
b111 \
10
0/
1,
0+
b100001 Z
#1660000
0%
0F
#1665000
1%
1F
b10111011 4
b1000110 :
b11110100 T
b1000 \
01
00
1/
0.
1+
b100010 Z
#1670000
0%
0F
#1675000
1%
1F
b11110100 4
b1000111 :
b1110111 T
b1001 \
11
10
0*
b0 X
b100011 Z
#1680000
0%
0F
#1685000
1%
1F
b1110111 4
b1001000 :
b0 W
0V
0U
03
02
#1690000
0%
0F
b11 (
1)
1R
1Q
0P
1S
b11 _
b10 X
#1695000
1%
1F
b1001 4
b10 W
b0 \
1V
13
b10100 Z
b11 X
#1700000
0%
0F
0)
b1001 6
bz (
0S
zR
zQ
zP
#1705000
1%
1F
b11 W
b1 ]
b10011 Z
#1710000
0%
0F
#1715000
1%
1F
1U
b1001 T
b1 \
12
00
0/
1.
0-
0,
0+
b10100 Z
#1720000
0%
0F
#1725000
1%
1F
b1001001 :
b11111111 T
b10 \
10
1/
1-
1,
1+
1*
b10101 Z
#1730000
0%
0F
#1735000
1%
1F
b11111111 4
b1001010 :
b1000000 T
b11 \
01
00
0/
0.
0-
0,
0*
b11001 Z
#1740000
0%
0F
#1745000
1%
1F
b1000000 4
b1001011 :
b11101001 T
b100 \
11
1.
1,
1*
b11010 Z
#1750000
0%
0F
#1755000
1%
1F
b11101001 4
b1001100 :
b11101010 T
b101 \
01
10
b11011 Z
#1760000
0%
0F
#1765000
1%
1F
b11101010 4
b1001101 :
b10000111 T
b110 \
11
1/
0.
0,
0+
b11111 Z
#1770000
0%
0F
#1775000
1%
1F
b10000111 4
b1001110 :
b11010011 T
b111 \
0/
1-
1+
b100000 Z
#1780000
0%
0F
#1785000
1%
1F
b11010011 4
b1001111 :
b10111011 T
b1000 \
1.
1,
0+
b100001 Z
#1790000
0%
0F
#1795000
1%
1F
b10111011 4
b1010000 :
b11110100 T
b1001 \
01
00
1/
0.
1+
b0 X
b100010 Z
#1800000
0%
0F
#1805000
1%
1F
b11110100 4
b1010001 :
b0 W
0V
0U
03
02
#1810000
0%
0F
b11 (
1)
1R
1Q
0P
1S
b10 X
#1815000
1%
1F
b101000 4
b10 W
b0 \
1V
13
b10011 Z
b11 X
#1820000
0%
0F
0)
b1010 6
bz (
0S
zR
zQ
zP
#1825000
1%
1F
b11 W
b0 ]
b10010 Z
#1830000
0%
0F
#1835000
1%
1F
1U
b101000 T
b1 \
12
0/
1.
0-
0+
0*
b10011 Z
#1840000
0%
0F
#1845000
1%
1F
b1010010 :
b1001 T
b10 \
11
0,
b10100 Z
#1850000
0%
0F
#1855000
1%
1F
b1001 4
b1010011 :
b11111111 T
b11 \
10
1/
1-
1,
1+
1*
b11000 Z
#1860000
0%
0F
#1865000
1%
1F
b11111111 4
b1010100 :
b11110000 T
b100 \
01
00
0/
0.
b11001 Z
#1870000
0%
0F
#1875000
1%
1F
b11110000 4
b1010101 :
b11101001 T
b101 \
11
1.
0-
b11010 Z
#1880000
0%
0F
#1885000
1%
1F
b11101001 4
b1010110 :
b11101010 T
b110 \
01
10
b11110 Z
#1890000
0%
0F
#1895000
1%
1F
b11101010 4
b1010111 :
b11010100 T
b111 \
00
1/
0.
1-
0,
b11111 Z
#1900000
0%
0F
#1905000
1%
1F
b11010100 4
b1011000 :
b11010011 T
b1000 \
11
10
0/
b100000 Z
#1910000
0%
0F
#1915000
1%
1F
b11010011 4
b1011001 :
b10111011 T
b1001 \
1.
1,
0+
b0 X
b100001 Z
#1920000
0%
0F
#1925000
1%
1F
b10111011 4
b1011010 :
b0 W
0V
0U
03
02
#1930000
0%
0F
b100 (
1)
0R
0Q
1P
1S
b100 _
b10 X
#1935000
1%
1F
b1000100 4
b10 W
b0 \
1V
13
b10010 Z
b11 X
#1940000
0%
0F
0)
b1011 6
bz (
0S
zR
zQ
zP
#1945000
1%
1F
b11 W
b10 ^
b1100 Z
#1950000
0%
0F
#1955000
1%
1F
1U
b1000100 T
b1 \
12
01
00
1/
0.
0-
0,
1+
0*
b1101 Z
#1960000
0%
0F
#1965000
1%
1F
b1011011 :
b1100010 T
b10 \
10
0/
1,
b1110 Z
#1970000
0%
0F
#1975000
1%
1F
b1100010 4
b1011100 :
b1100110 T
b11 \
1/
b10010 Z
#1980000
0%
0F
#1985000
1%
1F
b1100110 4
b1011101 :
b101000 T
b100 \
00
0/
1.
0+
b10011 Z
#1990000
0%
0F
#1995000
1%
1F
b101000 4
b1011110 :
b1001 T
b101 \
11
0,
b10100 Z
#2000000
0%
0F
#2005000
1%
1F
b1001 4
b1011111 :
b11111111 T
b110 \
10
1/
1-
1,
1+
1*
b11000 Z
#2010000
0%
0F
#2015000
1%
1F
b11111111 4
b1100000 :
b11110000 T
b111 \
01
00
0/
0.
b11001 Z
#2020000
0%
0F
#2025000
1%
1F
b11110000 4
b1100001 :
b11101001 T
b1000 \
11
1.
0-
b11010 Z
#2030000
0%
0F
#2035000
1%
1F
b11101001 4
b1100010 :
b11101010 T
b1001 \
01
10
b0 X
b11011 Z
#2040000
0%
0F
#2045000
1%
1F
b11101010 4
b1100011 :
b0 W
0V
0U
03
02
#2050000
0%
0F
b100 (
1)
0R
0Q
1P
1S
b10 X
#2055000
1%
1F
b1001001 4
b10 W
b0 \
1V
13
b1100 Z
b11 X
#2060000
0%
0F
0)
b1100 6
bz (
0S
zR
zQ
zP
#2065000
1%
1F
b11 W
b1 ^
b110 Z
#2070000
0%
0F
#2075000
1%
1F
1U
b1001001 T
b1 \
12
11
00
0,
0*
b111 Z
#2080000
0%
0F
#2085000
1%
1F
b1100100 :
b10010011 T
b10 \
10
0.
1-
0+
1*
b1000 Z
#2090000
0%
0F
#2095000
1%
1F
b10010011 4
b1100101 :
b100010 T
b11 \
01
0-
1,
0*
b1100 Z
#2100000
0%
0F
#2105000
1%
1F
b100010 4
b1100110 :
b1000100 T
b100 \
00
1/
0,
1+
b1101 Z
#2110000
0%
0F
#2115000
1%
1F
b1000100 4
b1100111 :
b1100010 T
b101 \
10
0/
1,
b1110 Z
#2120000
0%
0F
#2125000
1%
1F
b1100010 4
b1101000 :
b1100110 T
b110 \
1/
b10010 Z
#2130000
0%
0F
#2135000
1%
1F
b1100110 4
b1101001 :
b101000 T
b111 \
00
0/
1.
0+
b10011 Z
#2140000
0%
0F
