2007/contest_file/LCD_CTRL.vcd
$date
	Mon Feb 17 17:41:55 2025
$end
$version
	ModelSim Version 10.5b
$end
$timescale
	10ps
$end

$scope module test $end
$var parameter 32 ! IMAGE_N_PAT $end
$var parameter 32 " CMD_N_PAT $end
$var parameter 32 # OUT_LENGTH $end
$var parameter 32 $ t_reset $end
$var reg 1 % clk $end
$var reg 1 & reset $end
$var reg 8 ' datain [7:0] $end
$var reg 3 ( cmd [2:0] $end
$var reg 1 ) cmd_valid $end
$var wire 1 * dataout [7] $end
$var wire 1 + dataout [6] $end
$var wire 1 , dataout [5] $end
$var wire 1 - dataout [4] $end
$var wire 1 . dataout [3] $end
$var wire 1 / dataout [2] $end
$var wire 1 0 dataout [1] $end
$var wire 1 1 dataout [0] $end
$var wire 1 2 output_valid $end
$var wire 1 3 busy $end
$var reg 8 4 out_temp [7:0] $end
$var reg 1 5 stop $end
$var integer 32 6 i $end
$var integer 32 7 j $end
$var integer 32 8 out_f $end
$var integer 32 9 err $end
$var integer 32 : pattern_num $end
$var reg 1 ; over $end

$scope module top $end
$var parameter 32 < Reflash $end
$var parameter 32 = Load $end
$var parameter 32 > Right $end
$var parameter 32 ? Left $end
$var parameter 32 @ Up $end
$var parameter 32 A Down $end
$var parameter 32 B DECODE $end
$var parameter 32 C LOAD $end
$var parameter 32 D CAL $end
$var parameter 32 E DISPLAY $end
$var wire 1 F clk $end
$var wire 1 G reset $end
$var wire 1 H datain [7] $end
$var wire 1 I datain [6] $end
$var wire 1 J datain [5] $end
$var wire 1 K datain [4] $end
$var wire 1 L datain [3] $end
$var wire 1 M datain [2] $end
$var wire 1 N datain [1] $end
$var wire 1 O datain [0] $end
$var wire 1 P cmd [2] $end
$var wire 1 Q cmd [1] $end
$var wire 1 R cmd [0] $end
$var wire 1 S cmd_valid $end
$var reg 8 T dataout [7:0] $end
$var reg 1 U output_valid $end
$var reg 1 V busy $end
$var reg 3 W state [2:0] $end
$var reg 3 X next_state [2:0] $end
$var reg 6 Y cnt [5:0] $end
$var reg 6 Z mul [5:0] $end
$var reg 6 [ i [5:0] $end
$var reg 6 \ outcnt [5:0] $end
$var reg 6 ] out_x [5:0] $end
$var reg 6 ^ out_y [5:0] $end
$upscope $end
$upscope $end
$enddefinitions $end
#0
$dumpvars
0%
0&
bx '
bx (
0)
bx 4
05
0;
bx T
xU
xV
bx W
bx X
bx Y
bx Z
bx [
bx \
bx ]
bx ^
b100100 !
b11110 "
b100001110 #
b11001000 $
b0 <
b1 =
b10 >
b11 ?
b100 @
b101 A
b0 B
b1 C
b10 D
b11 E
bx 6
bx 7
b10 8
b0 9
b0 :
x1
x0
x/
x.
x-
x,
x+
x*
x2
x3
0S
xR
xQ
xP
xO
xN
xM
xL
xK
xJ
xI
xH
0G
0F
$end
#5000
1%
1F
b1110 4
#10000
0%
0F
1&
1G
b0 [
b1 [
b10 [
b11 [
b100 [
b101 [
b110 [
b111 [
b1000 [
b1001 [
b1010 [
b1011 [
b1100 [
b1101 [
b1110 [
b1111 [
b10000 [
b10001 [
b10010 [
b10011 [
b10100 [
b10101 [
b10110 [
b10111 [
b11000 [
b11001 [
b11010 [
b11011 [
b11100 [
b11101 [
b11110 [
b11111 [
b100000 [
b100001 [
b100010 [
b100011 [
b100100 [
b0 W
b0 Y
b0 \
b0 Z
0V
03
bx Z
b0 X
#15000
1%
1F
b0 [
b1 [
b10 [
b11 [
b100 [
b101 [
b110 [
b111 [
b1000 [
b1001 [
b1010 [
b1011 [
b1100 [
b1101 [
b1110 [
b1111 [
b10000 [
b10001 [
b10010 [
b10011 [
b10100 [
b10101 [
b10110 [
b10111 [
b11000 [
b11001 [
b11010 [
b11011 [
b11100 [
b11101 [
b11110 [
b11111 [
b100000 [
b100001 [
b100010 [
b100011 [
b100100 [
b0 Z
#20000
0%
0F
#25000
1%
1F
b0 [
b1 [
b10 [
b11 [
b100 [
b101 [
b110 [
b111 [
b1000 [
b1001 [
b1010 [
b1011 [
b1100 [
b1101 [
b1110 [
b1111 [
b10000 [
b10001 [
b10010 [
b10011 [
b10100 [
b10101 [
b10110 [
b10111 [
b11000 [
b11001 [
b11010 [
b11011 [
b11100 [
b11101 [
b11110 [
b11111 [
b100000 [
b100001 [
b100010 [
b100011 [
b100100 [
#30000
0&
0%
0G
0F
b0 6
b1 (
1)
b0 7
1R
0Q
0P
1S
1V
b1 X
13
#35000
1%
1F
b1 W
0U
02
#40000
0%
0F
b0 '
bz (
0)
b1 7
0O
0N
0M
0L
0K
0J
0I
0H
zR
zQ
zP
0S
#45000
1%
1F
b1 Y
b10 ]
b10 ^
b1110 Z
#50000
0%
0F
b1 '
b10 7
1O
#55000
1%
1F
b10 Y
#60000
0%
0F
b10 '
b11 7
0O
1N
#65000
1%
1F
b11 Y
#70000
0%
0F
b11 '
b100 7
1O
#75000
1%
1F
b100 Y
#80000
0%
0F
b100 '
b101 7
0O
0N
1M
#85000
1%
1F
b101 Y
#90000
0%
0F
b101 '
b110 7
1O
#95000
1%
1F
b110 Y
#100000
0%
0F
b110 '
b111 7
0O
1N
#105000
1%
1F
b111 Y
#110000
0%
0F
b111 '
b1000 7
1O
#115000
1%
1F
b1000 Y
#120000
0%
0F
b1000 '
b1001 7
0O
0N
0M
1L
#125000
1%
1F
b1001 Y
#130000
0%
0F
b1001 '
b1010 7
1O
#135000
1%
1F
b1010 Y
#140000
0%
0F
b1010 '
b1011 7
0O
1N
#145000
1%
1F
b1011 Y
#150000
0%
0F
b1011 '
b1100 7
1O
#155000
1%
1F
b1100 Y
#160000
0%
0F
b1100 '
b1101 7
0O
0N
1M
#165000
1%
1F
b1101 Y
#170000
0%
0F
b1101 '
b1110 7
1O
#175000
1%
1F
b1110 Y
#180000
0%
0F
b1110 '
b1111 7
0O
1N
#185000
1%
1F
b1111 Y
#190000
0%
0F
b1111 '
b10000 7
1O
#195000
1%
1F
b10000 Y
#200000
0%
0F
b10000 '
b10001 7
0O
0N
0M
0L
1K
#205000
1%
1F
b10001 Y
#210000
0%
0F
b10001 '
b10010 7
1O
#215000
1%
1F
b10010 Y
#220000
0%
0F
b10010 '
b10011 7
0O
1N
#225000
1%
1F
b10011 Y
#230000
0%
0F
b10011 '
b10100 7
1O
#235000
1%
1F
b10100 Y
#240000
0%
0F
b10100 '
b10101 7
0O
0N
1M
#245000
1%
1F
b10101 Y
#250000
0%
0F
b10101 '
b10110 7
1O
#255000
1%
1F
b10110 Y
#260000
0%
0F
b10110 '
b10111 7
0O
1N
#265000
1%
1F
b10111 Y
#270000
0%
0F
b10111 '
b11000 7
1O
#275000
1%
1F
b11000 Y
#280000
0%
0F
b11000 '
b11001 7
0O
0N
0M
1L
#285000
1%
1F
b11001 Y
#290000
0%
0F
b11001 '
b11010 7
1O
#295000
1%
1F
b11010 Y
#300000
0%
0F
b11010 '
b11011 7
0O
1N
#305000
1%
1F
b11011 Y
#310000
0%
0F
b11011 '
b11100 7
1O
#315000
1%
1F
b11100 Y
#320000
0%
0F
b11100 '
b11101 7
0O
0N
1M
#325000
1%
1F
b11101 Y
#330000
0%
0F
b11101 '
b11110 7
1O
#335000
1%
1F
b11110 Y
#340000
0%
0F
b11110 '
b11111 7
0O
1N
#345000
1%
1F
b11111 Y
#350000
0%
0F
b11111 '
b100000 7
1O
#355000
1%
1F
b100000 Y
#360000
0%
0F
b100000 '
b100001 7
0O
0N
0M
0L
0K
1J
#365000
1%
1F
b100001 Y
#370000
0%
0F
b100001 '
b100010 7
1O
#375000
1%
1F
b100010 Y
#380000
0%
0F
b100010 '
b100011 7
0O
1N
#385000
1%
1F
b100011 Y
b11 X
#390000
0%
0F
b100011 '
b100100 7
1O
#395000
1%
1F
b11 W
b100100 Y
#400000
0%
0F
bx '
b100101 7
b1 6
bz '
zO
zN
zM
zL
zK
zJ
zI
zH
#405000
1%
1F
1U
b1110 T
b1 \
12
01
10
1/
1.
0-
0,
0+
0*
b1111 Z
#410000
0%
0F
#415000
1%
1F
b1 :
b1111 T
b10 \
11
b10000 Z
#420000
0%
0F
#425000
1%
1F
b1111 4
b10 :
b10000 T
b11 \
01
00
0/
0.
1-
b10100 Z
#430000
0%
0F
#435000
1%
1F
b10000 4
b11 :
b10100 T
b100 \
1/
b10101 Z
#440000
0%
0F
#445000
1%
1F
b10100 4
b100 :
b10101 T
b101 \
11
b10110 Z
#450000
0%
0F
#455000
1%
1F
b10101 4
b101 :
b10110 T
b110 \
01
10
b11010 Z
#460000
0%
0F
#465000
1%
1F
b10110 4
b110 :
b11010 T
b111 \
0/
1.
b11011 Z
#470000
0%
0F
#475000
1%
1F
b11010 4
b111 :
b11011 T
b1000 \
11
b0 X
b11100 Z
#480000
0%
0F
#485000
1%
1F
b11011 4
b1000 :
b0 W
b11100 T
b1001 \
01
00
1/
b11101 Z
0V
03
#490000
0%
0F
b10 (
1)
0R
1Q
0P
1S
1V
b10 X
13
#495000
1%
1F
b11100 4
b1001 :
b10 W
b0 Y
b0 \
0U
02
b1110 Z
b11 X
#500000
0%
0F
0)
b10 6
bz (
0S
zR
zQ
zP
#505000
1%
1F
b1111 4
b11 W
#510000
0%
0F
#515000
1%
1F
1U
b1110 T
b1 \
12
10
0-
b1111 Z
#520000
0%
0F
#525000
1%
1F
b1 9
b1010 :
b1111 T
b10 \
11
b10000 Z
#530000
0%
0F
#535000
1%
1F
b10000 4
b10 9
b1011 :
b10000 T
b11 \
01
00
0/
0.
1-
b10100 Z
#540000
0%
0F
#545000
1%
1F
b10001 4
b11 9
b1100 :
b10100 T
b100 \
1/
b10101 Z
#550000
0%
0F
#555000
1%
1F
b10101 4
b100 9
b1101 :
b10101 T
b101 \
11
b10110 Z
#560000
0%
0F
#565000
1%
1F
b10110 4
b101 9
b1110 :
b10110 T
b110 \
01
10
b11010 Z
#570000
0%
0F
#575000
1%
1F
b10111 4
b110 9
b1111 :
b11010 T
b111 \
0/
1.
b11011 Z
#580000
0%
0F
#585000
1%
1F
b11011 4
b111 9
b10000 :
b11011 T
b1000 \
11
b0 X
b11100 Z
#590000
0%
0F
#595000
1%
1F
b11100 4
b1000 9
b10001 :
b0 W
b11100 T
b1001 \
01
00
1/
b11101 Z
0V
03
#600000
0%
0F
b101 (
1)
1R
0Q
1P
1S
1V
b10 X
13
#605000
1%
1F
b11101 4
b1001 9
b10010 :
b10 W
b0 \
0U
02
b1110 Z
b11 X
#610000
0%
0F
0)
b11 6
bz (
0S
zR
zQ
zP
#615000
1%
1F
b10101 4
b11 W
#620000
0%
0F
#625000
1%
1F
1U
b1110 T
b1 \
12
10
0-
b1111 Z
#630000
0%
0F
#635000
1%
1F
b1010 9
b10011 :
b1111 T
b10 \
11
b10000 Z
#640000
0%
0F
#645000
1%
1F
b10110 4
b1011 9
b10100 :
b10000 T
b11 \
01
00
0/
0.
1-
b10100 Z
#650000
0%
0F
#655000
1%
1F
b10111 4
b1100 9
b10101 :
b10100 T
b100 \
1/
b10101 Z
#660000
0%
0F
#665000
1%
1F
b11011 4
b1101 9
b10110 :
b10101 T
b101 \
11
b10110 Z
#670000
0%
0F
#675000
1%
1F
b11100 4
b1110 9
b10111 :
b10110 T
b110 \
01
10
b11010 Z
#680000
0%
0F
#685000
1%
1F
b11101 4
b1111 9
b11000 :
b11010 T
b111 \
0/
1.
b11011 Z
#690000
0%
0F
#695000
1%
1F
b100001 4
b10000 9
b11001 :
b11011 T
b1000 \
11
b0 X
b11100 Z
#700000
0%
0F
#705000
1%
1F
b100010 4
b10001 9
b11010 :
b0 W
b11100 T
b1001 \
01
00
1/
b11101 Z
0V
03
#710000
0%
0F
b11 (
1)
1R
1Q
0P
1S
1V
b10 X
13
#715000
1%
1F
b100011 4
b10010 9
b11011 :
b10 W
b0 \
0U
02
b1110 Z
b11 X
#720000
0%
0F
0)
b100 6
bz (
0S
zR
zQ
zP
#725000
1%
1F
b10100 4
b11 W
#730000
0%
0F
#735000
1%
1F
1U
b1110 T
b1 \
12
10
0-
b1111 Z
#740000
0%
0F
#745000
1%
1F
b10011 9
b11100 :
b1111 T
b10 \
11
b10000 Z
#750000
0%
0F
#755000
1%
1F
b10101 4
b10100 9
b11101 :
b10000 T
b11 \
01
00
0/
0.
1-
b10100 Z
#760000
0%
0F
#765000
1%
1F
b10110 4
b10101 9
b11110 :
b10100 T
b100 \
1/
b10101 Z
#770000
0%
0F
#775000
1%
1F
b11010 4
b10110 9
b11111 :
b10101 T
b101 \
11
b10110 Z
#780000
0%
0F
#785000
1%
1F
b11011 4
b10111 9
b100000 :
b10110 T
b110 \
01
10
b11010 Z
#790000
0%
0F
#795000
1%
1F
b11100 4
b11000 9
b100001 :
b11010 T
b111 \
0/
1.
b11011 Z
#800000
0%
0F
#805000
1%
1F
b100000 4
b11001 9
b100010 :
b11011 T
b1000 \
11
b0 X
b11100 Z
#810000
0%
0F
#815000
1%
1F
b100001 4
b11010 9
b100011 :
b0 W
b11100 T
b1001 \
01
00
1/
b11101 Z
0V
03
#820000
0%
0F
b100 (
1)
0R
0Q
1P
1S
1V
b10 X
13
#825000
1%
1F
b100010 4
b11011 9
b100100 :
b10 W
b0 \
0U
02
b1110 Z
b11 X
#830000
0%
0F
0)
b101 6
bz (
0S
zR
zQ
zP
#835000
1%
1F
b1110 4
b11 W
#840000
0%
0F
#845000
1%
1F
1U
b1110 T
b1 \
12
10
0-
b1111 Z
#850000
0%
0F
#855000
1%
1F
b100101 :
b1111 T
b10 \
11
b10000 Z
#860000
0%
0F
#865000
1%
1F
b1111 4
b100110 :
b10000 T
b11 \
01
00
0/
0.
1-
b10100 Z
#870000
0%
0F
#875000
1%
1F
b10000 4
b100111 :
b10100 T
b100 \
1/
b10101 Z
#880000
0%
0F
#885000
1%
1F
b10100 4
b101000 :
b10101 T
b101 \
11
b10110 Z
#890000
0%
0F
#895000
1%
1F
b10101 4
b101001 :
b10110 T
b110 \
01
10
b11010 Z
#900000
0%
0F
#905000
1%
1F
b10110 4
b101010 :
b11010 T
b111 \
0/
1.
b11011 Z
#910000
0%
0F
#915000
1%
1F
b11010 4
b101011 :
b11011 T
b1000 \
11
b0 X
b11100 Z
#920000
0%
0F
#925000
1%
1F
b11011 4
b101100 :
b0 W
b11100 T
b1001 \
01
00
1/
b11101 Z
0V
03
#930000
0%
0F
b0 (
1)
0R
0Q
0P
1S
1V
b11 X
13
#935000
1%
1F
b11100 4
b101101 :
b11 W
b0 \
0U
02
b1110 Z
#940000
0%
0F
0)
b110 6
bz (
0S
zR
zQ
zP
#945000
1%
1F
b1110 4
1U
b1110 T
b1 \
12
10
0-
b1111 Z
#950000
0%
0F
#955000
1%
1F
b101110 :
b1111 T
b10 \
11
b10000 Z
#960000
0%
0F
#965000
1%
1F
b1111 4
b101111 :
b10000 T
b11 \
01
00
0/
0.
1-
b10100 Z
#970000
0%
0F
#975000
1%
1F
b10000 4
b110000 :
b10100 T
b100 \
1/
b10101 Z
#980000
0%
0F
#985000
1%
1F
b10100 4
b110001 :
b10101 T
b101 \
11
b10110 Z
#990000
0%
0F
#995000
1%
1F
b10101 4
b110010 :
b10110 T
b110 \
01
10
b11010 Z
#1000000
0%
0F
#1005000
1%
1F
b10110 4
b110011 :
b11010 T
b111 \
0/
1.
b11011 Z
#1010000
0%
0F
#1015000
1%
1F
b11010 4
b110100 :
b11011 T
b1000 \
11
b0 X
b11100 Z
#1020000
0%
0F
#1025000
1%
1F
b11011 4
b110101 :
b0 W
b11100 T
b1001 \
01
00
1/
b11101 Z
0V
03
#1030000
0%
0F
b1 (
1)
b0 7
1R
0Q
0P
1S
1V
b1 X
13
#1035000
1%
1F
b11100 4
b110110 :
b1 W
b0 \
0U
02
b1110 Z
#1040000
0%
0F
b0 '
bz (
0)
b1 7
0O
0N
0M
0L
0K
0J
0I
0H
zR
zQ
zP
0S
#1045000
1%
1F
b1110 4
b1 Y
#1050000
0%
0F
b1 '
b10 7
1O
#1055000
1%
1F
b10 Y
#1060000
0%
0F
b10 '
b11 7
0O
1N
#1065000
1%
1F
b11 Y
#1070000
0%
0F
b11 '
b100 7
1O
#1075000
1%
1F
b100 Y
#1080000
0%
0F
b100 '
b101 7
0O
0N
1M
#1085000
1%
1F
b101 Y
#1090000
0%
0F
b101 '
b110 7
1O
#1095000
1%
1F
b110 Y
#1100000
0%
0F
b110 '
b111 7
0O
1N
#1105000
1%
1F
b111 Y
#1110000
0%
0F
b111 '
b1000 7
1O
#1115000
1%
1F
b1000 Y
#1120000
0%
0F
b1000 '
b1001 7
0O
0N
0M
1L
#1125000
1%
1F
b1001 Y
#1130000
0%
0F
b1001 '
b1010 7
1O
#1135000
1%
1F
b1010 Y
#1140000
0%
0F
b1010 '
b1011 7
0O
1N
#1145000
1%
1F
b1011 Y
#1150000
0%
0F
b1011 '
b1100 7
1O
#1155000
1%
1F
b1100 Y
#1160000
0%
0F
b1100 '
b1101 7
0O
0N
1M
#1165000
1%
1F
b1101 Y
#1170000
0%
0F
b1101 '
b1110 7
1O
#1175000
1%
1F
b1110 Y
#1180000
0%
0F
b1110 '
b1111 7
0O
1N
#1185000
1%
1F
b1111 Y
#1190000
0%
0F
b1111 '
b10000 7
1O
#1195000
1%
1F
b10000 Y
#1200000
0%
0F
b10000 '
b10001 7
0O
0N
0M
0L
1K
#1205000
1%
1F
b10001 Y
#1210000
0%
0F
b10001 '
b10010 7
1O
#1215000
1%
1F
b10010 Y
#1220000
0%
0F
b10010 '
b10011 7
0O
1N
#1225000
1%
1F
b10011 Y
#1230000
0%
0F
b10011 '
b10100 7
1O
#1235000
1%
1F
b10100 Y
#1240000
0%
0F
b10100 '
b10101 7
0O
0N
1M
#1245000
1%
1F
b10101 Y
#1250000
0%
0F
b10101 '
b10110 7
1O
#1255000
1%
1F
b10110 Y
#1260000
0%
0F
b10110 '
b10111 7
0O
1N
#1265000
1%
1F
b10111 Y
#1270000
0%
0F
b10111 '
b11000 7
1O
#1275000
1%
1F
b11000 Y
#1280000
0%
0F
b11000 '
b11001 7
0O
0N
0M
1L
#1285000
1%
1F
b11001 Y
#1290000
0%
0F
b11001 '
b11010 7
1O
#1295000
1%
1F
b11010 Y
#1300000
0%
0F
b11010 '
b11011 7
0O
1N
#1305000
1%
1F
b11011 Y
#1310000
0%
0F
b11011 '
b11100 7
1O
#1315000
1%
1F
b11100 Y
#1320000
0%
0F
b11100 '
b11101 7
0O
0N
1M
#1325000
1%
1F
b11101 Y
#1330000
0%
0F
b11101 '
b11110 7
1O
#1335000
1%
1F
b11110 Y
#1340000
0%
0F
b11110 '
b11111 7
0O
1N
#1345000
1%
1F
b11111 Y
#1350000
0%
0F
b11111 '
b100000 7
1O
#1355000
1%
1F
b100000 Y
#1360000
0%
0F
b100000 '
b100001 7
0O
0N
0M
0L
0K
1J
#1365000
1%
1F
b100001 Y
#1370000
0%
0F
b100001 '
b100010 7
1O
#1375000
1%
1F
b100010 Y
#1380000
0%
0F
b100010 '
b100011 7
0O
1N
#1385000
1%
1F
b100011 Y
b11 X
#1390000
0%
0F
b100011 '
b100100 7
1O
#1395000
1%
1F
b11 W
b100100 Y
#1400000
0%
0F
bx '
b100101 7
b111 6
bz '
zO
zN
zM
zL
zK
zJ
zI
zH
#1405000
1%
1F
1U
b1110 T
b1 \
12
10
0-
b1111 Z
#1410000
0%
0F
#1415000
1%
1F
b110111 :
b1111 T
b10 \
11
b10000 Z
#1420000
0%
0F
#1425000
1%
1F
b1111 4
b111000 :
b10000 T
b11 \
01
00
0/
0.
1-
b10100 Z
#1430000
0%
0F
#1435000
1%
1F
b10000 4
b111001 :
b10100 T
b100 \
1/
b10101 Z
#1440000
0%
0F
#1445000
1%
1F
b10100 4
b111010 :
b10101 T
b101 \
11
b10110 Z
#1450000
0%
0F
#1455000
1%
1F
b10101 4
b111011 :
b10110 T
b110 \
01
10
b11010 Z
#1460000
0%
0F
#1465000
1%
1F
b10110 4
b111100 :
b11010 T
b111 \
0/
1.
b11011 Z
#1470000
0%
0F
#1475000
1%
1F
b11010 4
b111101 :
b11011 T
b1000 \
11
b0 X
b11100 Z
#1480000
0%
0F
#1485000
1%
1F
b11011 4
b111110 :
b0 W
b11100 T
b1001 \
01
00
1/
b11101 Z
0V
03
#1490000
0%
0F
b11 (
1)
1R
1Q
0P
1S
1V
b10 X
13
#1495000
1%
1F
b11100 4
b111111 :
b10 W
b0 Y
b0 \
0U
02
b1110 Z
b11 X
#1500000
0%
0F
0)
b1000 6
bz (
0S
zR
zQ
zP
#1505000
1%
1F
b1101 4
b11 W
#1510000
0%
0F
#1515000
1%
1F
1U
b1110 T
b1 \
12
10
0-
b1111 Z
#1520000
0%
0F
#1525000
1%
1F
b11100 9
b1000000 :
b1111 T
b10 \
11
b10000 Z
#1530000
0%
0F
#1535000
1%
1F
b1110 4
b11101 9
b1000001 :
b10000 T
b11 \
01
00
0/
0.
1-
b10100 Z
#1540000
0%
0F
#1545000
1%
1F
b1111 4
b11110 9
b1000010 :
b10100 T
b100 \
1/
b10101 Z
#1550000
0%
0F
#1555000
1%
1F
b10011 4
b11111 9
b1000011 :
b10101 T
b101 \
11
b10110 Z
#1560000
0%
0F
#1565000
1%
1F
b10100 4
b100000 9
b1000100 :
b10110 T
b110 \
01
10
b11010 Z
#1570000
0%
0F
#1575000
1%
1F
b10101 4
b100001 9
b1000101 :
b11010 T
b111 \
0/
1.
b11011 Z
#1580000
0%
0F
#1585000
1%
1F
b11001 4
b100010 9
b1000110 :
b11011 T
b1000 \
11
b0 X
b11100 Z
#1590000
0%
0F
#1595000
1%
1F
b11010 4
b100011 9
b1000111 :
b0 W
b11100 T
b1001 \
01
00
1/
b11101 Z
0V
03
#1600000
0%
0F
b101 (
1)
1R
0Q
1P
1S
1V
b10 X
13
#1605000
1%
1F
b11011 4
b100100 9
b1001000 :
b10 W
b0 \
0U
02
b1110 Z
b11 X
#1610000
0%
0F
0)
b1001 6
bz (
0S
zR
zQ
zP
#1615000
1%
1F
b10011 4
b11 W
#1620000
0%
0F
#1625000
1%
1F
1U
b1110 T
b1 \
12
10
0-
b1111 Z
#1630000
0%
0F
#1635000
1%
1F
b100101 9
b1001001 :
b1111 T
b10 \
11
b10000 Z
#1640000
0%
0F
#1645000
1%
1F
b10100 4
b100110 9
b1001010 :
b10000 T
b11 \
01
00
0/
0.
1-
b10100 Z
#1650000
0%
0F
#1655000
1%
1F
b10101 4
b100111 9
b1001011 :
b10100 T
b100 \
1/
b10101 Z
#1660000
0%
0F
#1665000
1%
1F
b11001 4
b101000 9
b1001100 :
b10101 T
b101 \
11
b10110 Z
#1670000
0%
0F
#1675000
1%
1F
b11010 4
b101001 9
b1001101 :
b10110 T
b110 \
01
10
b11010 Z
#1680000
0%
0F
#1685000
1%
1F
b11011 4
b101010 9
b1001110 :
b11010 T
b111 \
0/
1.
b11011 Z
#1690000
0%
0F
#1695000
1%
1F
b11111 4
b101011 9
b1001111 :
b11011 T
b1000 \
11
b0 X
b11100 Z
#1700000
0%
0F
#1705000
1%
1F
b100000 4
b101100 9
b1010000 :
b0 W
b11100 T
b1001 \
01
00
1/
b11101 Z
0V
03
#1710000
0%
0F
b101 (
1)
1R
0Q
1P
1S
1V
b10 X
13
#1715000
1%
1F
b100001 4
b101101 9
b1010001 :
b10 W
b0 \
0U
02
b1110 Z
b11 X
#1720000
0%
0F
0)
b1010 6
bz (
0S
zR
zQ
zP
#1725000
1%
1F
b10011 4
b11 W
#1730000
0%
0F
#1735000
1%
1F
1U
b1110 T
b1 \
12
10
0-
b1111 Z
#1740000
0%
0F
#1745000
1%
1F
b101110 9
b1010010 :
b1111 T
b10 \
11
b10000 Z
#1750000
0%
0F
#1755000
1%
1F
b10100 4
b101111 9
b1010011 :
b10000 T
b11 \
01
00
0/
0.
1-
b10100 Z
#1760000
0%
0F
#1765000
1%
1F
b10101 4
b110000 9
b1010100 :
b10100 T
b100 \
1/
b10101 Z
#1770000
0%
0F
#1775000
1%
1F
b11001 4
b110001 9
b1010101 :
b10101 T
b101 \
11
b10110 Z
#1780000
0%
0F
#1785000
1%
1F
b11010 4
b110010 9
b1010110 :
b10110 T
b110 \
01
10
b11010 Z
#1790000
0%
0F
#1795000
1%
1F
b11011 4
b110011 9
b1010111 :
b11010 T
b111 \
0/
1.
b11011 Z
#1800000
0%
0F
#1805000
1%
1F
b11111 4
b110100 9
b1011000 :
b11011 T
b1000 \
11
b0 X
b11100 Z
#1810000
0%
0F
#1815000
1%
1F
b100000 4
b110101 9
b1011001 :
b0 W
b11100 T
b1001 \
01
00
1/
b11101 Z
0V
03
#1820000
0%
0F
b11 (
1)
1R
1Q
0P
1S
1V
b10 X
13
#1825000
1%
1F
b100001 4
b110110 9
b1011010 :
b10 W
b0 \
0U
02
b1110 Z
b11 X
#1830000
0%
0F
0)
b1011 6
bz (
0S
zR
zQ
zP
#1835000
1%
1F
b10010 4
b11 W
#1840000
0%
0F
#1845000
1%
1F
1U
b1110 T
b1 \
12
10
0-
b1111 Z
#1850000
0%
0F
#1855000
1%
1F
b110111 9
b1011011 :
b1111 T
b10 \
11
b10000 Z
#1860000
0%
0F
#1865000
1%
1F
b10011 4
b111000 9
b1011100 :
b10000 T
b11 \
01
00
0/
0.
1-
b10100 Z
#1870000
0%
0F
#1875000
1%
1F
b10100 4
b111001 9
b1011101 :
b10100 T
b100 \
1/
b10101 Z
#1880000
0%
0F
#1885000
1%
1F
b11000 4
b111010 9
b1011110 :
b10101 T
b101 \
11
b10110 Z
#1890000
0%
0F
#1895000
1%
1F
b11001 4
b111011 9
b1011111 :
b10110 T
b110 \
01
10
b11010 Z
#1900000
0%
0F
#1905000
1%
1F
b11010 4
b111100 9
b1100000 :
b11010 T
b111 \
0/
1.
b11011 Z
#1910000
0%
0F
#1915000
1%
1F
b11110 4
b111101 9
b1100001 :
b11011 T
b1000 \
11
b0 X
b11100 Z
#1920000
0%
0F
#1925000
1%
1F
b11111 4
b111110 9
b1100010 :
b0 W
b11100 T
b1001 \
01
00
1/
b11101 Z
0V
03
#1930000
0%
0F
b11 (
1)
1R
1Q
0P
1S
1V
b10 X
13
#1935000
1%
1F
b100000 4
b111111 9
b1100011 :
b10 W
b0 \
0U
02
b1110 Z
b11 X
#1940000
0%
0F
0)
b1100 6
bz (
0S
zR
zQ
zP
#1945000
1%
1F
b10010 4
b11 W
#1950000
0%
0F
#1955000
1%
1F
1U
b1110 T
b1 \
12
10
0-
b1111 Z
#1960000
0%
0F
#1965000
1%
1F
b1000000 9
b1100100 :
b1111 T
b10 \
11
b10000 Z
#1970000
0%
0F
#1975000
1%
1F
b10011 4
b1000001 9
b1100101 :
b10000 T
b11 \
01
00
0/
0.
1-
b10100 Z
#1980000
0%
0F
#1985000
1%
1F
b10100 4
b1000010 9
b1100110 :
b10100 T
b100 \
1/
b10101 Z
#1990000
0%
0F
#1995000
1%
1F
b11000 4
b1000011 9
b1100111 :
b10101 T
b101 \
11
b10110 Z
#2000000
0%
0F
#2005000
1%
1F
b11001 4
b1000100 9
b1101000 :
b10110 T
b110 \
01
10
b11010 Z
#2010000
0%
0F
#2015000
1%
1F
b11010 4
b1000101 9
b1101001 :
b11010 T
b111 \
0/
1.
b11011 Z
#2020000
0%
0F
#2025000
1%
1F
b11110 4
b1000110 9
b1101010 :
b11011 T
b1000 \
11
b0 X
b11100 Z
#2030000
0%
0F
#2035000
1%
1F
b11111 4
b1000111 9
b1101011 :
b0 W
b11100 T
b1001 \
01
00
1/
b11101 Z
0V
03
#2040000
0%
0F
b100 (
1)
0R
0Q
1P
1S
1V
b10 X
13
#2045000
1%
1F
b100000 4
b1001000 9
b1101100 :
b10 W
b0 \
0U
02
b1110 Z
b11 X
#2050000
0%
0F
0)
b1101 6
bz (
0S
zR
zQ
zP
#2055000
1%
1F
b1100 4
b11 W
#2060000
0%
0F
#2065000
1%
1F
1U
b1110 T
b1 \
12
10
0-
b1111 Z
#2070000
0%
0F
#2075000
1%
1F
b1001001 9
b1101101 :
b1111 T
b10 \
11
b10000 Z
#2080000
0%
0F
#2085000
1%
1F
b1101 4
b1001010 9
b1101110 :
b10000 T
b11 \
01
00
0/
0.
1-
b10100 Z
#2090000
0%
0F
#2095000
1%
1F
b1110 4
b1001011 9
b1101111 :
b10100 T
b100 \
1/
b10101 Z
#2100000
0%
0F
#2105000
1%
1F
b10010 4
b1001100 9
b1110000 :
b10101 T
b101 \
11
b10110 Z
#2110000
0%
0F
#2115000
1%
1F
b10011 4
b1001101 9
b1110001 :
b10110 T
b110 \
01
10
b11010 Z
#2120000
0%
0F
#2125000
1%
1F
b10100 4
b1001110 9
b1110010 :
b11010 T
b111 \
0/
1.
b11011 Z
#2130000
0%
0F
#2135000
1%
1F
b11000 4
b1001111 9
b1110011 :
b11011 T
b1000 \
11
b0 X
b11100 Z
#2140000
0%
0F
#2145000
1%
1F
b11001 4
b1010000 9
b1110100 :
b0 W
b11100 T
b1001 \
01
00
1/
b11101 Z
0V
03
#2150000
0%
0F
b100 (
1)
0R
0Q
1P
1S
1V
b10 X
13
#2155000
1%
1F
b11010 4
b1010001 9
b1110101 :
b10 W
b0 \
0U
02
b1110 Z
b11 X
#2160000
0%
0F
0)
b1110 6
bz (
0S
zR
zQ
zP
#2165000
1%
1F
b110 4
b11 W
#2170000
0%
0F
#2175000
1%
1F
1U
b1110 T
b1 \
12
10
0-
b1111 Z
#2180000
0%
0F
#2185000
1%
1F
b1010010 9
b1110110 :
b1111 T
b10 \
11
b10000 Z
#2190000
0%
0F
#2195000
1%
1F
b111 4
b1010011 9
b1110111 :
b10000 T
b11 \
01
00
0/
0.
1-
b10100 Z
#2200000
0%
0F
#2205000
1%
1F
b1000 4
b1010100 9
b1111000 :
b10100 T
b100 \
1/
b10101 Z
#2210000
0%
0F
