2007/contest_file/LCD_CTRL.vcd
$date
	Mon Feb 17 15:59:01 2025
$end
$version
	ModelSim Version 10.5b
$end
$timescale
	10ps
$end

$scope module test $end
$var parameter 32 ! IMAGE_N_PAT $end
$var parameter 32 " CMD_N_PAT $end
$var parameter 32 # OUT_LENGTH $end
$var parameter 32 $ t_reset $end
$var reg 1 % clk $end
$var reg 1 & reset $end
$var reg 8 ' datain [7:0] $end
$var reg 3 ( cmd [2:0] $end
$var reg 1 ) cmd_valid $end
$var wire 1 * dataout [7] $end
$var wire 1 + dataout [6] $end
$var wire 1 , dataout [5] $end
$var wire 1 - dataout [4] $end
$var wire 1 . dataout [3] $end
$var wire 1 / dataout [2] $end
$var wire 1 0 dataout [1] $end
$var wire 1 1 dataout [0] $end
$var wire 1 2 output_valid $end
$var wire 1 3 busy $end
$var reg 8 4 out_temp [7:0] $end
$var reg 1 5 stop $end
$var integer 32 6 i $end
$var integer 32 7 j $end
$var integer 32 8 out_f $end
$var integer 32 9 err $end
$var integer 32 : pattern_num $end
$var reg 1 ; over $end

$scope module top $end
$var parameter 32 < Reflash $end
$var parameter 32 = Load $end
$var parameter 32 > Right $end
$var parameter 32 ? Left $end
$var parameter 32 @ Up $end
$var parameter 32 A Down $end
$var parameter 32 B DECODE $end
$var parameter 32 C LOAD $end
$var parameter 32 D CAL $end
$var parameter 32 E DISPLAY $end
$var wire 1 F clk $end
$var wire 1 G reset $end
$var wire 1 H datain [7] $end
$var wire 1 I datain [6] $end
$var wire 1 J datain [5] $end
$var wire 1 K datain [4] $end
$var wire 1 L datain [3] $end
$var wire 1 M datain [2] $end
$var wire 1 N datain [1] $end
$var wire 1 O datain [0] $end
$var wire 1 P cmd [2] $end
$var wire 1 Q cmd [1] $end
$var wire 1 R cmd [0] $end
$var wire 1 S cmd_valid $end
$var reg 8 T dataout [7:0] $end
$var wire 1 2 output_valid $end
$var reg 1 U busy $end
$var reg 3 V state [2:0] $end
$var reg 3 W next_state [2:0] $end
$var reg 6 X cnt [5:0] $end
$var reg 6 Y mul [5:0] $end
$var reg 6 Z i [5:0] $end
$var reg 6 [ outcnt [5:0] $end
$var reg 6 \ out_x [5:0] $end
$var reg 6 ] out_y [5:0] $end
$upscope $end
$upscope $end
$enddefinitions $end
#0
$dumpvars
0%
0&
bx '
bx (
0)
bx 4
05
0;
bx T
xU
bx V
bx W
bx X
bx Y
bx Z
bx [
bx \
bx ]
b100100 !
b11110 "
b100001110 #
b11001000 $
b0 <
b1 =
b10 >
b11 ?
b100 @
b101 A
b0 B
b1 C
b10 D
b11 E
bx 6
bx 7
b10 8
b0 9
b0 :
x1
x0
x/
x.
x-
x,
x+
x*
z2
x3
0S
xR
xQ
xP
xO
xN
xM
xL
xK
xJ
xI
xH
0G
0F
$end
#5000
1%
1F
b1100110 4
#10000
0%
0F
1&
1G
b0 Z
b1 Z
b10 Z
b11 Z
b100 Z
b101 Z
b110 Z
b111 Z
b1000 Z
b1001 Z
b1010 Z
b1011 Z
b1100 Z
b1101 Z
b1110 Z
b1111 Z
b10000 Z
b10001 Z
b10010 Z
b10011 Z
b10100 Z
b10101 Z
b10110 Z
b10111 Z
b11000 Z
b11001 Z
b11010 Z
b11011 Z
b11100 Z
b11101 Z
b11110 Z
b11111 Z
b100000 Z
b100001 Z
b100010 Z
b100011 Z
b100100 Z
b0 X
b0 [
b0 Y
0U
03
bx Y
#15000
1%
1F
b0 Z
b1 Z
b10 Z
b11 Z
b100 Z
b101 Z
b110 Z
b111 Z
b1000 Z
b1001 Z
b1010 Z
b1011 Z
b1100 Z
b1101 Z
b1110 Z
b1111 Z
b10000 Z
b10001 Z
b10010 Z
b10011 Z
b10100 Z
b10101 Z
b10110 Z
b10111 Z
b11000 Z
b11001 Z
b11010 Z
b11011 Z
b11100 Z
b11101 Z
b11110 Z
b11111 Z
b100000 Z
b100001 Z
b100010 Z
b100011 Z
b100100 Z
b0 Y
#20000
0%
0F
#25000
1%
1F
b0 Z
b1 Z
b10 Z
b11 Z
b100 Z
b101 Z
b110 Z
b111 Z
b1000 Z
b1001 Z
b1010 Z
b1011 Z
b1100 Z
b1101 Z
b1110 Z
b1111 Z
b10000 Z
b10001 Z
b10010 Z
b10011 Z
b10100 Z
b10101 Z
b10110 Z
b10111 Z
b11000 Z
b11001 Z
b11010 Z
b11011 Z
b11100 Z
b11101 Z
b11110 Z
b11111 Z
b100000 Z
b100001 Z
b100010 Z
b100011 Z
b100100 Z
#30000
0&
0%
0G
0F
b0 6
b1 (
1)
b0 7
1R
0Q
0P
1S
#35000
1%
1F
#40000
0%
0F
b100000 '
bz (
0)
b1 7
0O
0N
0M
0L
0K
1J
0I
0H
zR
zQ
zP
0S
#45000
1%
1F
#50000
0%
0F
b1010111 '
b10 7
1O
1N
1M
1K
0J
1I
#55000
1%
1F
#60000
0%
0F
b110000 '
b11 7
0O
0N
0M
1J
0I
#65000
1%
1F
#70000
0%
0F
b11101011 '
b100 7
1O
1N
1L
0K
1I
1H
#75000
1%
1F
#80000
0%
0F
b10101111 '
b101 7
1M
0I
#85000
1%
1F
#90000
0%
0F
b11101100 '
b110 7
0O
0N
1I
#95000
1%
1F
#100000
0%
0F
b1001001 '
b111 7
1O
0M
0J
0H
#105000
1%
1F
#110000
0%
0F
b10010011 '
b1000 7
1N
0L
1K
0I
1H
#115000
1%
1F
#120000
0%
0F
b100010 '
b1001 7
0O
0K
1J
0H
#125000
1%
1F
#130000
0%
0F
b1100111 '
b1010 7
1O
1M
1I
#135000
1%
1F
#140000
0%
0F
b10100000 '
b1011 7
0O
0N
0M
0I
1H
#145000
1%
1F
#150000
0%
0F
b101 '
b1100 7
1O
1M
0J
0H
#155000
1%
1F
#160000
0%
0F
b1000100 '
b1101 7
0O
1I
#165000
1%
1F
#170000
0%
0F
b1100010 '
b1110 7
1N
0M
1J
#175000
1%
1F
#180000
0%
0F
b1100110 '
b1111 7
1M
#185000
1%
1F
#190000
0%
0F
b11001100 '
b10000 7
0N
1L
0J
1H
#195000
1%
1F
#200000
0%
0F
b1110110 '
b10001 7
1N
0L
1K
1J
0H
#205000
1%
1F
#210000
0%
0F
b10010111 '
b10010 7
1O
0J
0I
1H
#215000
1%
1F
#220000
0%
0F
b101000 '
b10011 7
0O
0N
0M
1L
0K
1J
0H
#225000
1%
1F
#230000
0%
0F
b1001 '
b10100 7
1O
0J
#235000
1%
1F
#240000
0%
0F
b11111111 '
b10101 7
1N
1M
1K
1J
1I
1H
#245000
1%
1F
#250000
0%
0F
b1000000 '
b10110 7
0O
0N
0M
0L
0K
0J
0H
#255000
1%
1F
#260000
0%
0F
b11000 '
b10111 7
1L
1K
0I
#265000
1%
1F
#270000
0%
0F
b10000000 '
b11000 7
0L
0K
1H
#275000
1%
1F
#280000
0%
0F
b11110000 '
b11001 7
1K
1J
1I
#285000
1%
1F
#290000
0%
0F
b11101001 '
b11010 7
1O
1L
0K
#295000
1%
1F
#300000
0%
0F
b11101010 '
b11011 7
0O
1N
#305000
1%
1F
#310000
0%
0F
b10000111 '
b11100 7
1O
1M
0L
0J
0I
#315000
1%
1F
#320000
0%
0F
b11011101 '
b11101 7
0N
1L
1K
1I
#325000
1%
1F
#330000
0%
0F
b11101101 '
b11110 7
0K
1J
#335000
1%
1F
#340000
0%
0F
b11010100 '
b11111 7
0O
0L
1K
0J
#345000
1%
1F
#350000
0%
0F
b11010011 '
b100000 7
1O
1N
0M
#355000
1%
1F
#360000
0%
0F
b10111011 '
b100001 7
1L
1J
0I
#365000
1%
1F
#370000
0%
0F
b11110100 '
b100010 7
0O
0N
1M
0L
1I
#375000
1%
1F
#380000
0%
0F
b1110111 '
b100011 7
1O
1N
0H
#385000
1%
1F
#390000
0%
0F
b1010010 '
b100100 7
0O
0M
0J
#395000
1%
1F
#400000
0%
0F
bx '
b100101 7
b1 6
b1 (
1)
b0 7
xO
xN
xM
xL
xK
xJ
xI
xH
1R
0Q
0P
1S
#405000
1%
1F
#410000
0%
0F
b100000 '
bz (
0)
b1 7
0O
0N
0M
0L
0K
1J
0I
0H
zR
zQ
zP
0S
#415000
1%
1F
#420000
0%
0F
b1010111 '
b10 7
1O
1N
1M
1K
0J
1I
#425000
1%
1F
#430000
0%
0F
b110000 '
b11 7
0O
0N
0M
1J
0I
#435000
1%
1F
#440000
0%
0F
b11101011 '
b100 7
1O
1N
1L
0K
1I
1H
#445000
1%
1F
#450000
0%
0F
b10101111 '
b101 7
1M
0I
#455000
1%
1F
#460000
0%
0F
b11101100 '
b110 7
0O
0N
1I
#465000
1%
1F
#470000
0%
0F
b1001001 '
b111 7
1O
0M
0J
0H
#475000
1%
1F
#480000
0%
0F
b10010011 '
b1000 7
1N
0L
1K
0I
1H
#485000
1%
1F
#490000
0%
0F
b100010 '
b1001 7
0O
0K
1J
0H
#495000
1%
1F
#500000
0%
0F
b1100111 '
b1010 7
1O
1M
1I
#505000
1%
1F
#510000
0%
0F
b10100000 '
b1011 7
0O
0N
0M
0I
1H
#515000
1%
1F
#520000
0%
0F
b101 '
b1100 7
1O
1M
0J
0H
#525000
1%
1F
#530000
0%
0F
b1000100 '
b1101 7
0O
1I
#535000
1%
1F
#540000
0%
0F
b1100010 '
b1110 7
1N
0M
1J
#545000
1%
1F
#550000
0%
0F
b1100110 '
b1111 7
1M
#555000
1%
1F
#560000
0%
0F
b11001100 '
b10000 7
0N
1L
0J
1H
#565000
1%
1F
#570000
0%
0F
b1110110 '
b10001 7
1N
0L
1K
1J
0H
#575000
1%
1F
#580000
0%
0F
b10010111 '
b10010 7
1O
0J
0I
1H
#585000
1%
1F
#590000
0%
0F
b101000 '
b10011 7
0O
0N
0M
1L
0K
1J
0H
#595000
1%
1F
#600000
0%
0F
b1001 '
b10100 7
1O
0J
#605000
1%
1F
#610000
0%
0F
b11111111 '
b10101 7
1N
1M
1K
1J
1I
1H
#615000
1%
1F
#620000
0%
0F
b1000000 '
b10110 7
0O
0N
0M
0L
0K
0J
0H
#625000
1%
1F
#630000
0%
0F
b11000 '
b10111 7
1L
1K
0I
#635000
1%
1F
#640000
0%
0F
b10000000 '
b11000 7
0L
0K
1H
#645000
1%
1F
#650000
0%
0F
b11110000 '
b11001 7
1K
1J
1I
#655000
1%
1F
#660000
0%
0F
b11101001 '
b11010 7
1O
1L
0K
#665000
1%
1F
#670000
0%
0F
b11101010 '
b11011 7
0O
1N
#675000
1%
1F
#680000
0%
0F
b10000111 '
b11100 7
1O
1M
0L
0J
0I
#685000
1%
1F
#690000
0%
0F
b11011101 '
b11101 7
0N
1L
1K
1I
#695000
1%
1F
#700000
0%
0F
b11101101 '
b11110 7
0K
1J
#705000
1%
1F
#710000
0%
0F
b11010100 '
b11111 7
0O
0L
1K
0J
#715000
1%
1F
#720000
0%
0F
b11010011 '
b100000 7
1O
1N
0M
#725000
1%
1F
#730000
0%
0F
b10111011 '
b100001 7
1L
1J
0I
#735000
1%
1F
#740000
0%
0F
b11110100 '
b100010 7
0O
0N
1M
0L
1I
#745000
1%
1F
#750000
0%
0F
b1110111 '
b100011 7
1O
1N
0H
#755000
1%
1F
#760000
0%
0F
b1010010 '
b100100 7
0O
0M
0J
#765000
1%
1F
#770000
0%
0F
bx '
b100101 7
b10 6
b10 (
1)
xO
xN
xM
xL
xK
xJ
xI
xH
0R
1Q
0P
1S
#775000
1%
1F
#780000
0%
0F
bz '
0)
b11 6
1)
zO
zN
zM
zL
zK
zJ
zI
zH
#785000
1%
1F
#790000
0%
0F
0)
b100 6
b101 (
1)
1R
0Q
1P
#795000
1%
1F
#800000
0%
0F
0)
b101 6
1)
#805000
1%
1F
#810000
0%
0F
0)
b110 6
b11 (
1)
1Q
0P
#815000
1%
1F
#820000
0%
0F
0)
b111 6
b101 (
1)
0Q
1P
#825000
1%
1F
#830000
0%
0F
0)
b1000 6
b11 (
1)
1Q
0P
#835000
1%
1F
#840000
0%
0F
0)
b1001 6
1)
#845000
1%
1F
#850000
0%
0F
0)
b1010 6
b100 (
1)
0R
0Q
1P
#855000
1%
1F
#860000
0%
0F
0)
b1011 6
1)
#865000
1%
1F
#870000
0%
0F
0)
b1100 6
b11 (
1)
1R
1Q
0P
#875000
1%
1F
#880000
0%
0F
0)
b1101 6
b100 (
1)
0R
0Q
1P
#885000
1%
1F
#890000
0%
0F
0)
b1110 6
b1 (
1)
b0 7
1R
0P
#895000
1%
1F
#900000
0%
0F
b100000 '
bz (
0)
b1 7
0O
0N
0M
0L
0K
1J
0I
0H
zR
zQ
zP
0S
#905000
1%
1F
#910000
0%
0F
b1010111 '
b10 7
1O
1N
1M
1K
0J
1I
#915000
1%
1F
#920000
0%
0F
b110000 '
b11 7
0O
0N
0M
1J
0I
#925000
1%
1F
#930000
0%
0F
b11101011 '
b100 7
1O
1N
1L
0K
1I
1H
#935000
1%
1F
#940000
0%
0F
b10101111 '
b101 7
1M
0I
#945000
1%
1F
#950000
0%
0F
b11101100 '
b110 7
0O
0N
1I
#955000
1%
1F
#960000
0%
0F
b1001001 '
b111 7
1O
0M
0J
0H
#965000
1%
1F
#970000
0%
0F
b10010011 '
b1000 7
1N
0L
1K
0I
1H
#975000
1%
1F
#980000
0%
0F
b100010 '
b1001 7
0O
0K
1J
0H
#985000
1%
1F
#990000
0%
0F
b1100111 '
b1010 7
1O
1M
1I
#995000
1%
1F
#1000000
0%
0F
b10100000 '
b1011 7
0O
0N
0M
0I
1H
#1005000
1%
1F
#1010000
0%
0F
b101 '
b1100 7
1O
1M
0J
0H
#1015000
1%
1F
#1020000
0%
0F
b1000100 '
b1101 7
0O
1I
#1025000
1%
1F
#1030000
0%
0F
b1100010 '
b1110 7
1N
0M
1J
#1035000
1%
1F
#1040000
0%
0F
b1100110 '
b1111 7
1M
#1045000
1%
1F
#1050000
0%
0F
b11001100 '
b10000 7
0N
1L
0J
1H
#1055000
1%
1F
#1060000
0%
0F
b1110110 '
b10001 7
1N
0L
1K
1J
0H
#1065000
1%
1F
#1070000
0%
0F
b10010111 '
b10010 7
1O
0J
0I
1H
#1075000
1%
1F
#1080000
0%
0F
b101000 '
b10011 7
0O
0N
0M
1L
0K
1J
0H
#1085000
1%
1F
#1090000
0%
0F
b1001 '
b10100 7
1O
0J
#1095000
1%
1F
#1100000
0%
0F
b11111111 '
b10101 7
1N
1M
1K
1J
1I
1H
#1105000
1%
1F
#1110000
0%
0F
b1000000 '
b10110 7
0O
0N
0M
0L
0K
0J
0H
#1115000
1%
1F
#1120000
0%
0F
b11000 '
b10111 7
1L
1K
0I
#1125000
1%
1F
#1130000
0%
0F
b10000000 '
b11000 7
0L
0K
1H
#1135000
1%
1F
#1140000
0%
0F
b11110000 '
b11001 7
1K
1J
1I
#1145000
1%
1F
#1150000
0%
0F
b11101001 '
b11010 7
1O
1L
0K
#1155000
1%
1F
#1160000
0%
0F
b11101010 '
b11011 7
0O
1N
#1165000
1%
1F
#1170000
0%
0F
b10000111 '
b11100 7
1O
1M
0L
0J
0I
#1175000
1%
1F
#1180000
0%
0F
b11011101 '
b11101 7
0N
1L
1K
1I
#1185000
1%
1F
#1190000
0%
0F
b11101101 '
b11110 7
0K
1J
#1195000
1%
1F
#1200000
0%
0F
b11010100 '
b11111 7
0O
0L
1K
0J
#1205000
1%
1F
#1210000
0%
0F
b11010011 '
b100000 7
1O
1N
0M
#1215000
1%
1F
#1220000
0%
0F
b10111011 '
b100001 7
1L
1J
0I
#1225000
1%
1F
#1230000
0%
0F
b11110100 '
b100010 7
0O
0N
1M
0L
1I
#1235000
1%
1F
#1240000
0%
0F
b1110111 '
b100011 7
1O
1N
0H
#1245000
1%
1F
#1250000
0%
0F
b1010010 '
b100100 7
0O
0M
0J
#1255000
1%
1F
#1260000
0%
0F
bx '
b100101 7
b1111 6
b11 (
1)
xO
xN
xM
xL
xK
xJ
xI
xH
1R
1Q
0P
1S
#1265000
1%
1F
#1270000
0%
0F
bz '
0)
b10000 6
b100 (
1)
zO
zN
zM
zL
zK
zJ
zI
zH
0R
0Q
1P
#1275000
1%
1F
#1280000
0%
0F
0)
b10001 6
1)
#1285000
1%
1F
#1290000
0%
0F
0)
b10010 6
b10 (
1)
1Q
0P
#1295000
1%
1F
#1300000
0%
0F
0)
b10011 6
b100 (
1)
0Q
1P
#1305000
1%
1F
#1310000
0%
0F
0)
b10100 6
b10 (
1)
1Q
0P
#1315000
1%
1F
#1320000
0%
0F
0)
b10101 6
b100 (
1)
0Q
1P
#1325000
1%
1F
#1330000
0%
0F
0)
b10110 6
b10 (
1)
1Q
0P
#1335000
1%
1F
#1340000
0%
0F
0)
b10111 6
b101 (
1)
1R
0Q
1P
#1345000
1%
1F
#1350000
0%
0F
0)
b11000 6
b10 (
1)
0R
1Q
0P
#1355000
1%
1F
#1360000
0%
0F
0)
b11001 6
1)
#1365000
1%
1F
#1370000
0%
0F
0)
b11010 6
b101 (
1)
1R
0Q
1P
#1375000
1%
1F
#1380000
0%
0F
0)
b11011 6
1)
#1385000
1%
1F
#1390000
0%
0F
0)
b11100 6
1)
#1395000
1%
1F
#1400000
0%
0F
0)
b11101 6
b1 (
1)
b0 7
0P
#1405000
1%
1F
#1410000
0%
0F
b100000 '
bz (
0)
b1 7
0O
0N
0M
0L
0K
1J
0I
0H
zR
zQ
zP
0S
#1415000
1%
1F
#1420000
0%
0F
b1010111 '
b10 7
1O
1N
1M
1K
0J
1I
#1425000
1%
1F
#1430000
0%
0F
b110000 '
b11 7
0O
0N
0M
1J
0I
#1435000
1%
1F
#1440000
0%
0F
b11101011 '
b100 7
1O
1N
1L
0K
1I
1H
#1445000
1%
1F
#1450000
0%
0F
b10101111 '
b101 7
1M
0I
#1455000
1%
1F
#1460000
0%
0F
b11101100 '
b110 7
0O
0N
1I
#1465000
1%
1F
#1470000
0%
0F
b1001001 '
b111 7
1O
0M
0J
0H
#1475000
1%
1F
#1480000
0%
0F
b10010011 '
b1000 7
1N
0L
1K
0I
1H
#1485000
1%
1F
#1490000
0%
0F
b100010 '
b1001 7
0O
0K
1J
0H
#1495000
1%
1F
#1500000
0%
0F
b1100111 '
b1010 7
1O
1M
1I
